<?xml version="1.0"?>
<COLLADA xmlns="http://www.collada.org/2005/11/COLLADASchema" version="1.4.1">
    <asset>
        <contributor>
            <authoring_tool>CINEMA4D 15.037 COLLADA Exporter</authoring_tool>
        </contributor>
        <created>2014-02-26T23:25:09Z</created>
        <modified>2014-02-26T23:25:09Z</modified>
        <unit meter="0.01" name="centimeter"/>
        <up_axis>Y_UP</up_axis>
    </asset>
    <library_images>
        <image id="ID5">
            <init_from>file:////Applications/MAMP/htdocs/DBP/OCULUS%20RIFT/_Projects/seagull_rift/models/c4d/Vadon/tex/crab.jpg</init_from>
        </image>
    </library_images>
    <library_effects>
        <effect id="ID2">
            <profile_COMMON>
                <technique sid="COMMON">
                    <blinn>
                        <diffuse>
                            <color>0.8 0.8 0.8 1</color>
                        </diffuse>
                        <specular>
                            <color>0.2 0.2 0.2 1</color>
                        </specular>
                        <shininess>
                            <float>0.5</float>
                        </shininess>
                    </blinn>
                </technique>
            </profile_COMMON>
        </effect>
        <effect id="ID4">
            <profile_COMMON>
                <newparam sid="ID6">
                    <surface type="2D">
                        <init_from>ID5</init_from>
                    </surface>
                </newparam>
                <newparam sid="ID7">
                    <sampler2D>
                        <source>ID6</source>
                    </sampler2D>
                </newparam>
                <technique sid="COMMON">
                    <blinn>
                        <diffuse>
                            <texture texture="ID7" texcoord="UVSET0"/>
                        </diffuse>
                        <specular>
                            <color>0.2 0.2 0.2 1</color>
                        </specular>
                        <shininess>
                            <float>0.5</float>
                        </shininess>
                    </blinn>
                </technique>
            </profile_COMMON>
        </effect>
    </library_effects>
    <library_materials>
        <material id="ID1" name="Mat">
            <instance_effect url="#ID2"/>
        </material>
        <material id="ID3" name="Vadon">
            <instance_effect url="#ID4"/>
        </material>
    </library_materials>
    <library_geometries>
        <geometry id="ID10">
            <mesh>
                <source id="ID11">
                    <float_array id="ID12" count="2049">-22.3249 51.1128 7.0824 -20.8851 49.8067 4.5004 -21.7936 47.7528 5.7681 -22.9377 49.6317 7.9311 -20.9991 46.7102 7.6964 -22.3733 48.8927 9.2269 -26.6328 52.1688 10.6979 -25.9649 50.9246 12.5516 -25.7898 54.2912 9.8246 -23.5386 55.0927 11.136 -20.7653 51.8914 7.8947 -23.4986 55.4667 11.3053 -26.2667 54.6879 9.7706 -23.5205 55.1792 13.8524 -23.182 54.3779 12.9801 -25.8564 54.4051 15.7159 -24.387 52.9354 14.2374 -22.4776 53.9762 12.8638 -23.3641 51.7504 14.0011 -19.9349 51.2534 9.2017 -18.632 50.9069 5.6335 -17.4714 50.0542 7.566 -20.4554 49.6118 10.1559 -26.5117 52.5408 12.7885 -28.1514 54.1875 13.7189 -18.307 47.7482 9.0385 -26.5659 53.2918 11.0802 -27.8599 54.4838 11.3704 20.2015 50.3716 6.3305 22.5854 49.9327 4.2909 24.3113 51.2193 5.9577 22.6818 51.4716 7.4872 19.1168 52.8538 5.7656 22.0747 53.3412 7.3769 19.8977 54.2331 3.995 22.6483 54.4582 6.2686 21.8916 53.6534 2.2167 23.9494 54.0966 4.8994 26.1333 55.9445 9.4093 28.1389 55.7287 7.5574 25.4616 54.3763 11.0024 26.5397 52.0085 11.2104 28.7832 51.8502 9.0761 29.4319 53.3438 9.841 27.5586 53.1552 11.6593 26.093 54.7093 10.9733 26.3541 55.2944 11.7985 26.0672 56.1814 9.5689 28.5806 56.09 7.4775 24.6342 52.4181 4.9565 29.1437 53.6053 7.6489 29.1721 54.4758 8.3608 30.3721 55.6866 8.7519 30.9334 55.0877 11.0184 23.0098 51.4644 2.6473 28.8613 54.618 13.2267 -15.8461 49.8724 7.3679 -17.3107 50.9626 4.2937 -20.5839 49.3105 2.6193 -22.2025 46.5203 4.8196 -21.0655 44.9312 7.7585 -17.2202 46.2692 10.1727 -14.8312 53.5051 2.2608 -21.1137 49.3954 -1.3531 -23.9836 43.8326 4.3296 -22.5185 40.0762 9.1963 -25.5159 39.5509 5.1377 -17.9975 40.3849 12.3809 -8.6402 46.7622 12.3244 -8.8868 40.254 15.3195 1.5492 40.4256 16.2733 1.2721 47.5704 12.8802 11.1195 48.0619 11.4216 11.9259 41.1524 14.9338 20.8983 42.0639 11.6601 19.4592 49.1638 7.7365 25.3383 42.142 8.3094 23.0824 48.4854 4.7806 17.2505 52.5575 5.3459 9.6018 53.7203 6.5751 0.5468 53.8639 7.5821 7.983 57.2207 2.2063 -0.0096 56.9813 2.8154 14.9869 55.9168 0.3572 18.1259 53.9202 2.1843 21.3308 52.8315 0.0172 21.3386 52.8289 -4.0633 15.5494 55.8508 -3.7352 10.0248 58.4879 -2.9749 9.5819 58.523 -1.4501 7.4547 58.5769 -0.1271 4.5169 58.8126 -0.217 -7.9496 55.9321 3.2234 -8.4221 52.2626 7.7257 -4.9936 58.0381 0.2324 -5.0039 58.1168 -2.8604 -0.4574 58.2229 -2.6256 3.9129 58.8089 -3.2466 -25.2707 45.805 -0.6217 -32.0708 41.7294 0.4757 -25.9325 38.9724 0.2933 -25.0605 35.4692 5.7982 -22.3961 35.4287 9.5258 -31.7488 34.5557 1.0112 -25.5911 31.874 0.628 -23.5298 29.4213 0.1046 -22.8197 30.6164 5.5594 -18.4843 34.5014 12.2243 -14.2066 34.8927 14.5027 -7.4455 32.0785 15.8369 1.2708 32.4441 17.1085 9.7409 32.1821 16.289 16.5328 35.0649 15.3191 20.929 34.7177 13.2739 25.408 36.7735 9.5033 28.2186 37.7691 4.8109 28.2583 41.8721 4.1411 25.7565 47.8556 1.1542 23.5871 50.2833 1.8196 26.0753 49.9579 -3.8996 33.5235 47.0347 -3.7118 28.5925 41.326 -0.7172 34.8306 37.4297 -0.2227 28.8887 33.4067 0.6024 26.7911 30.0819 0.988 25.8358 31.2551 6.4135 22.5675 31.6718 9.9534 21.8906 29.4534 12.671 20.4143 32.1046 14.5873 17.3135 32.6012 16.3563 12.6324 30.5529 16.6648 12.4831 29.9962 13.6083 16.3462 31.6798 13.7805 18.5009 28.5272 11.7372 20.6417 26.7326 11.0771 20.8226 27.317 7.5876 21.8984 26.3172 1.3423 15.4665 24.552 8.449 15.5925 23.296 1.8946 16.8242 24.9252 11.2946 14.547 27.0136 11.5671 12.719 24.9739 13.0299 9.6061 23.6424 9.8289 7.9887 27.1274 14.8793 10.9979 27.1589 15.685 -19.9119 31.4398 8.8214 -17.998 27.1033 6.5539 -18.7289 26.0882 0.2635 -12.6663 24.3922 7.7027 -12.4276 23.138 1.1506 -14.1947 24.7498 10.471 -18.0097 26.5361 10.0383 -19.363 29.2502 11.5589 -18.0094 31.9109 13.5548 -15.0108 32.4249 15.4958 -10.3361 30.4026 16.068 -10.0106 29.4002 13.3264 -13.6068 31.6009 13.0308 -15.8266 28.8625 10.5056 -12.1192 26.8176 10.8268 -10.1876 24.8216 12.435 -6.8777 23.5418 9.3957 -5.5683 27.0416 14.5249 -8.6276 27.0162 15.1828 1.2036 26.7475 15.0401 1.3653 23.0492 9.7372 8.7554 21.687 2.1951 1.5793 21.0215 2.1089 -5.5984 21.6061 1.814 -7.7762 57.3238 0.8943 -10.0838 56.9142 0.0134 -10.8055 56.7984 -1.3967 -15.8884 53.3081 -1.7282 -7.6761 50.8623 -11.727 -8.053 44.142 -16.6262 -16.0818 42.524 -13.4159 -15.1502 48.6215 -9.7279 -21.899 40.7368 -9.2697 -20.3999 47.3972 -6.159 -24.4428 42.2167 -4.4268 -25.7736 37.5934 -3.8466 -22.3506 35.2406 -11.1811 -15.8012 36.3667 -17.5012 -6.7984 37.6774 -20.9543 0.5305 44.8166 -18.3078 1.9147 38.2152 -22.1229 10.5922 38.1863 -20.6364 9.209 45.108 -17.1157 19.4997 37.6357 -16.8815 17.5288 44.405 -14.3689 23.7234 43.29 -10.5629 25.5175 36.5872 -11.2037 14.9821 50.8308 -11.378 20.3525 50.6932 -8.7606 25.3584 46.2447 -7.6062 27.4746 41.9001 -7.2459 13.7655 54.9377 -7.6861 7.5424 51.8633 -12.4224 7.4202 55.814 -8.5134 -0.134 52.1498 -12.3655 -4.7015 55.3182 -7.8733 -0.6117 55.841 -8.0601 3.4994 55.9814 -8.3968 9.1575 58.5014 -4.7406 23.4763 30.8515 -13.1609 17.7442 32.0522 -18.1075 15.7891 34.3788 -19.6312 11.5953 34.3918 -21.5559 8.403 31.737 -22.3268 2.1929 32.5033 -23.436 -4.0597 31.6645 -22.66 -7.3158 34.2865 -22.0542 -11.6053 34.229 -20.3513 -13.614 31.8808 -18.9342 -19.5887 30.6035 -14.3058 -22.4619 32.4288 -11.2797 -25.2225 34.7644 -4.8706 -23.8657 31.9234 -6.9892 -22.9339 30.4577 -10.9854 -23.804 30.05 -7.7229 -21.0733 29.4436 -13.0888 -18.8057 26.9704 -13.389 -17.0617 27.3703 -14.3754 -13.1572 28.3114 -17.7094 -12.8767 31.1119 -20.4699 -12.5757 28.3168 -19.6204 -11.0727 32.3631 -21.486 -7.6744 32.3766 -22.7649 -5.4618 30.7252 -23.0162 -5.3948 27.7176 -21.5562 -3.6102 27.5437 -20.8229 2.1527 26.8277 -20.7186 7.9002 27.6138 -20.5093 9.6961 27.8141 -21.124 9.8168 30.8131 -22.5985 12.0022 32.4765 -22.2504 15.3295 32.4875 -20.8073 17.0863 31.2518 -19.6963 15.5558 30.2627 -18.1333 12.7356 32.4635 -19.9351 9.6348 29.9456 -20.2257 11.3744 26.7792 -19.6917 12.4116 28.0081 -17.9926 10.6707 26.106 -17.8431 2.0045 23.0698 -14.3395 9.1925 23.5174 -14.0461 -6.5013 26.0047 -18.3066 -5.1935 23.4363 -14.4281 -7.137 26.6662 -20.2141 -5.4 29.8321 -20.6613 -8.2784 27.8727 -18.5779 -8.5198 32.3523 -20.4767 -11.4229 30.1337 -18.8295 -10.4863 26.5103 -17.3621 -10.6759 27.1091 -19.4022 28.1477 37.0682 -5.8596 26.1682 32.7028 -9.987 27.3508 32.2066 -5.6291 24.8961 29.7161 -11.8721 26.6436 30.7324 -9.6737 27.3546 30.3138 -6.3739 25.9211 29.8806 -3.7896 26.5736 29.1459 -4.7224 24.8874 31.0803 -8.0617 22.295 29.3235 -10.9622 22.6632 27.2285 -12.2969 20.9903 27.5922 -13.3652 17.2604 28.4799 -16.9027 16.7604 28.4609 -18.8442 14.8619 27.2448 -18.7112 14.5943 26.6524 -16.6925 15.7941 24.8464 -13.4835 20.0001 26.1822 -10.899 21.9316 26.1139 -10.5225 21.1764 27.222 -7.7092 22.2969 25.704 -7.124 20.3581 25.574 -6.509 15.7396 23.4172 -6.3583 8.9473 21.6641 -6.3031 1.8062 21.0639 -6.4451 23.3402 26.6806 -3.1893 24.2991 26.274 -4.9262 23.7982 28.7346 -4.7264 -22.5103 29.6139 -5.0743 -23.0978 28.8957 -6.0286 -19.9313 26.4416 -4.3355 -20.7968 26.0396 -6.104 -20.3157 28.5224 -5.8872 -21.2567 30.8312 -9.293 -18.5309 29.054 -12.0522 -18.1551 25.8696 -11.5747 -17.5576 26.9886 -8.7298 -16.1875 25.9725 -11.8588 -11.8303 24.6907 -14.217 -5.3387 21.5836 -6.6825 -12.1378 23.26 -7.0985 -16.7684 25.3638 -7.4929 -18.685 25.4734 -8.1966 7.0897 58.631 -4.9717 -8.3841 57.4104 -3.9318 -8.5278 54.5241 -7.4953 -14.495 52.652 -5.882 -10.3159 56.9443 -3.3004 -38.1504 91.3064 9.6876 -35.0614 94.6291 16.5456 -31.6573 97.953 15.1146 -33.7796 94.9037 4.8868 -29.4635 95.2359 22.4032 -27.2629 95.4608 14.9147 -27.0775 92.6208 7.1094 -39.8807 81.8307 5.7828 -34.4414 82.5952 -0.8154 -26.3758 82.9031 2.5652 -24.6831 87.6404 11.7601 -23.6178 82.5526 9.9478 -26.1082 90.6183 15.9142 -34.7912 89.81 17.6185 -37.3331 86.5955 14.8657 -38.9384 81.2272 13.9065 -38.6145 77.44 16.0865 -38.701 72.6436 9.4669 -32.6722 69.6885 3.2572 -24.979 73.6378 5.8291 -22.6701 78.4276 11.9959 -23.1938 67.7871 12.4427 -30.2584 64.2885 9.2687 -22.1325 75.1639 15.4942 -36.4622 65.2228 14.3386 -37.1548 74.4256 19.0319 21.5417 85.6075 8.7474 20.2609 92.7759 16.6562 25.9458 97.4045 15.5043 29.0685 88.7159 5.544 35.1396 87.0419 11.3789 31.5115 93.5865 18.5924 24.1356 95.7876 26.1117 28.3761 93.1998 26.1841 20.4934 92.477 24.9556 23.3944 90.0978 31.8035 32.3856 87.2631 21.5798 29.4077 88.4388 25.3377 35.1648 83.2589 18.6544 35.9971 78.9947 19.2246 36.6238 77.1853 11.2769 30.9391 75.2457 4.3804 22.7952 75.7785 8.2262 19.6821 81.8422 15.4256 19.9834 77.1606 15.742 19.6296 85.9892 19.0456 20.6708 87.488 24.0281 30.6023 66.7809 7.8249 23.2264 67.6153 11.7944 20.8007 73.4294 16.6903 36.8318 67.8033 12.786 35.8395 75.3779 19.6492 -22.5226 34.905 25.0515 -15.5744 31.9872 27.4561 -17.9375 34.1822 19.5051 -16.6443 28.2243 31.7306 -26.0773 31.9048 29.8583 -29.3256 26.8508 21.4954 -26.0306 31.0324 19.2957 -21.6468 32.6924 17.7991 -19.6284 27.0877 17.0847 -21.7572 27.1216 16.519 -17.2027 30.4434 19.038 -15.4742 33.578 22.8458 -13.0871 27.6864 22.7132 -14.0686 27.4652 21.1264 -16.3776 23.6609 19.3089 -16.6901 21.0414 20.2563 -23.5564 21.4325 16.7867 -19.1305 17.1066 23.2371 -25.5565 16.8868 19.8349 -12.2899 22.2779 25.4212 -14.3369 18.3613 28.5229 -17.9654 22.5781 34.7883 -28.3277 25.5901 33.4939 -21.063 11.2032 26.4123 -16.8732 12.5373 31.0162 -20.2173 14.0924 35.4383 -28.058 14.9187 34.5944 -31.1783 21.1141 24.1579 -26.7251 11.1586 23.4632 -30.3754 12.9145 27.3055 -25.0177 4.6768 32.2065 -21.3228 5.6878 32.7111 -26.4017 5.136 28.6284 -21.5767 -0.0146 28.5599 24.1327 34.9132 26.3978 16.9164 32.272 28.2745 17.5059 28.5623 32.6865 27.1801 31.8952 31.5308 30.9237 26.5721 23.5507 27.9632 30.8142 21.0165 19.9921 34.2298 20.5074 17.246 33.7729 23.6448 19.1809 30.5054 20.0675 21.63 27.0376 18.3536 23.775 32.5861 19.1372 23.799 26.9902 17.9666 18.0781 23.7621 20.3316 18.24 21.1542 21.38 15.7736 27.672 21.9157 14.6779 27.9609 23.4184 25.3752 21.2519 18.4788 32.3567 20.8323 26.4545 28.9103 25.5842 35.4469 26.9643 16.7051 21.7586 20.294 17.2021 24.6181 13.4789 22.6363 26.1446 15.1319 18.7177 29.4707 18.3804 22.9382 35.939 21.7655 11.1855 28.0928 17.2619 12.7653 32.3061 27.638 10.9194 25.6026 31.02 12.7277 29.6649 28.1878 14.9774 36.6958 20.2829 14.3986 36.9202 21.9279 -0.0115 30.7846 26.821 5.0702 31.0034 25.1613 4.7872 34.4811 21.4565 5.8701 34.6573 -26.5822 85.9051 32.7156 -31.1504 79.4582 30.6163 -29.3026 78.1646 34.3047 -24.7672 77.678 35.9888 -21.9608 79.0492 32.4656 -22.6521 80.3698 28.3986 -20.7696 72.0484 27.6844 -21.5565 77.0104 23.4888 -21.5302 68.5491 22.1054 -22.0708 75.1053 19.7307 -23.9258 64.6481 16.8376 -23.0256 75.8256 15.0087 -23.9342 59.5215 11.7082 -23.986 58.9863 15.4317 -28.199 59.1638 9.1523 -31.8073 58.4073 11.7432 -31.4081 58.0405 16.0588 -34.1939 63.947 18.4856 -36.3728 74.9068 18.9743 -33.3635 67.3415 23.9915 -34.9331 74.3218 23.2571 -31.5477 71.1854 30.5855 -34.0377 76.1086 26.7152 -24.9938 68.2206 31.864 -26.6073 64.1599 25.925 -28.4808 62.3874 19.5236 -27.524 58.229 18.4111 13.4465 33.2788 -23.808 15.7837 34.5353 -30.536 8.717 31.3086 -30.8232 21.209 30.6194 -26.3164 23.9125 26.9638 -29.9086 17.6978 31.9755 -36.412 8.4566 27.593 -35.2173 8.2639 26.8875 -26.1849 7.0209 21.5055 -28.4575 9.9141 32.3611 -26.1679 10.0966 27.6991 -24.7057 13.334 23.8083 -23.4293 13.5344 20.0816 -24.5996 13.3665 30.6438 -23.4443 17.5119 32.2684 -23.5948 18.1177 26.1024 -22.1669 16.4737 27.2178 -22.1582 20.3303 20.5844 -23.5368 25.2828 21.5032 -33.2668 19.0056 25.9733 -40.9309 21.5139 16.9374 -27.338 23.8687 13.3939 -36.4322 21.8477 10.6488 -31.828 19.072 15.5501 -42.3493 9.2046 22.1254 -38.8197 8.1263 17.2302 -32.2594 14.4069 16.4744 -28.6678 15.6642 9.9259 -33.1534 10.1534 10.9502 -36.204 11.5349 13.8487 -40.7198 18.3911 5.403 -41.8514 20.8231 5.3192 -38.8501 14.6396 5.6342 -40.9557 17.0831 -0.6659 -38.9178 -11.6512 34.5563 -31.4285 -9.3471 33.4084 -24.6696 -4.637 31.2108 -31.6302 -4.4285 27.397 -35.9423 -13.5955 31.9009 -37.2518 -19.9023 27.132 -30.6552 -17.1469 30.8206 -27.1371 -13.4286 32.4685 -24.4436 -9.2671 30.7872 -24.1231 -6.0838 27.7682 -25.4316 -5.8256 32.383 -27.0014 -4.2639 26.8844 -26.8963 -9.4361 23.9527 -24.2239 -9.6466 20.2003 -25.1757 -12.4756 27.4323 -22.8976 -14.1366 26.3454 -22.8839 -3.1038 21.4352 -29.0491 -5.258 21.8655 -39.4272 -14.9916 25.824 -41.6427 -4.271 17.0968 -32.7601 -7.7173 13.5655 -41.1522 -6.2723 11.698 -36.0813 -15.2552 15.1058 -42.9674 -21.3544 21.6227 -33.8975 -16.4354 20.8353 -24.139 -17.6707 17.1263 -27.863 -10.5696 16.5202 -29.1668 -11.7765 11.1194 -32.8999 -18.0015 11.8588 -31.7915 -20.0683 13.445 -36.8917 -13.8917 4.6296 -39.3533 -10.1925 5.4413 -38.5876 -16.3896 5.3688 -36.4996 -12.2182 0.0211 -34.5462 -31.5377 34.4968 -11.3933 -28.2774 30.8942 -17.4616 -32.0626 27.246 -19.8164 -37.6627 32.147 -12.6993 -35.5188 27.3712 -3.832 -30.8937 30.8111 -4.4238 -24.6294 32.9988 -9.8638 -24.8662 31.9302 -14.0699 -23.834 26.0965 -13.1386 -24.265 26.3756 -15.2823 -24.2105 29.1813 -9.7765 -26.5872 32.2086 -6.2394 -25.9429 26.0611 -4.7493 -24.971 25.903 -6.3519 -24.7054 22.3639 -9.5939 -28.4935 20.6967 -3.3571 -39.3338 22.0523 -4.1906 -32.5132 17.1858 -4.1732 -42.4619 26.304 -13.6913 -35.7659 21.8904 -20.8331 -25.7998 20.9738 -17.3167 -29.8069 16.8313 -18.1762 -25.9194 19.8417 -9.6982 -30.0055 16.3581 -10.92 -38.9485 13.775 -19.5099 -44.2852 15.6965 -14.0026 -41.6582 13.9474 -6.7293 -36.3282 11.9521 -5.8667 -34.1416 11.0203 -11.7725 -40.1121 5.6824 -9.6841 -41.3423 5.0522 -13.2923 -38.7271 5.6387 -16.0754 -34.0016 11.5609 -18.1321 -36.7814 0.0223 -12.2695 38.9924 26.4905 -2.5647 41.5769 31.5724 -11.1396 35.5912 34.2364 -9.7918 34.6029 30.2437 -3.0349 28.5783 33.1038 -8.4335 32.2106 31.1671 -16.0833 35.797 27.4122 -18.5773 39.1725 21.8915 -19.8261 46.0149 25.4949 -12.3751 42.4709 20.9653 -3.153 31.5546 20.2609 -2.5336 35.3585 16.5483 -3.4808 29.3694 25.8415 -3.6746 30.423 32.0043 -4.8305 27.8783 29.318 -8.5582 28.4261 25.8389 -5.2958 28.0492 22.4859 -8.7187 27.414 26.4297 -12.0793 28.8163 32.2413 -12.6866 27.887 26.8063 -14.1974 29.0359 19.9004 -8.944 32.9144 16.2318 -10.294 29.1123 21.4302 -16.4931 32.8646 17.0912 -17.5172 36.6118 11.048 -11.3584 36.6532 11.8768 -17.6879 41.8224 13.543 -18.8913 47.1932 14.7536 -13.223 44.3153 12.8697 -6.0832 38.7751 11.463 -5.3861 41.598 5.0385 -9.3909 42.7956 4.3707 -13.0033 40.3536 5.4448 -15.7983 37.5214 0.0385 -12.2537 29.3143 80.5736 27.2393 26.0471 85.2611 21.1406 24.8697 81.176 29.1168 30.969 79.174 23.4984 33.7083 76.1663 23.3861 31.9142 72.8731 28.8811 25.7822 70.0286 31.5674 21.8816 79.7987 25.7487 21.024 71.5804 26.6382 22.3705 78.134 21.7798 21.1125 74.6293 20.9461 27.9312 64.8909 24.7429 22.0524 68.2632 21.0418 34.0044 68.9909 22.3317 34.4873 75.4153 21.1453 35.1206 65.4888 16.8339 35.2927 76.3047 18.1122 33.4347 59.4106 13.7545 33.4977 60.307 9.4988 29.664 60.5909 7.1478 25.5711 59.8071 9.8832 24.818 64.393 15.6929 25.9476 58.9006 13.515 21.5111 73.9343 18.3415 21.7997 74.9855 14.8088 29.8359 62.8998 18.0747 29.7355 58.5603 16.2541 8.4824 76.3074 0.8614 10.7719 75.4975 -1.1254 6.9122 77.6257 -3.8413 5.272 76.5801 0.3308 3.3172 76.0985 -2.1083 3.977 75.043 -4.6614 6.269 74.134 -6.5123 9.2231 74.1978 -6.036 11.0829 74.8109 -3.8857 2.7441 71.9734 -1.2015 5.0826 72.3402 2.0211 3.7209 70.8907 -4.4809 4.0711 65.4192 -3.7826 3.9546 66.132 -1.0802 5.7114 66.6005 0.947 9.0528 72.0134 2.8792 8.7049 66.3376 1.1938 12.2193 71.0643 0.4447 12.9119 70.3677 -3.1494 10.2244 69.9349 -5.9582 6.4984 69.9628 -6.7665 5.8871 64.8187 -5.6705 6.1636 59.7669 -4.4156 4.7517 60.141 -3.0546 7.7962 59.555 -4.2263 8.5584 64.6862 -5.3737 10.5154 65.0321 -3.8214 10.7038 65.8011 -0.8842 5.7763 60.3616 -0.4134 7.5324 60.1766 -0.3243 4.7237 60.5498 -1.2816 8.6365 59.841 -1.5113 8.6379 59.6119 -2.9748 -10.6172 73.9113 4.0618 -7.6353 74.8718 4.2383 -9.3996 76.3203 -0.356 -5.4699 75.3734 1.8463 -5.4323 75.043 -1.2987 -7.4793 73.9557 -2.9404 -10.3735 72.8955 -3.0137 -12.39 72.7479 -0.807 -12.5396 73.2177 2.0593 -4.2749 71.1425 3.3112 -7.1114 70.47 6.1126 -4.0291 71.0218 -0.6411 -6.5472 69.9086 -2.9244 -6.3868 64.4853 -2.4908 -4.8592 65.1707 -0.2989 -5.2057 65.4083 2.3311 -7.4925 64.7995 4.122 -11.0076 69.2941 5.7019 -13.4704 68.5958 3.0254 -12.7117 68.4318 -0.769 -10.0413 68.7841 -3.4153 -8.8569 63.706 -3.0976 -6.4074 59.3654 -2.8025 -8.2025 58.7516 -3.3776 -9.4856 58.2408 -2.4631 -10.8587 63.2639 -1.4299 -11.6194 63.3632 0.9117 -10.2141 64.0665 3.4627 -7.5281 58.8609 0.9202 -6.0857 59.3668 0.0345 -5.6212 59.7549 -1.2115 -8.9818 58.3398 0.3582 -9.6324 58.1291 -0.956 21.9888 57.0679 -2.1383 9.3798 61.9514 -4.4938 5.0324 56.2086 6.903 17.6448 51.3283 9.2506</float_array>
                    <technique_common>
                        <accessor count="683" source="#ID12" stride="3">
                            <param name="X" type="float"/>
                            <param name="Y" type="float"/>
                            <param name="Z" type="float"/>
                        </accessor>
                    </technique_common>
                </source>
                <source id="ID13">
                    <float_array id="ID14" count="2070">-0.800875 -0.296781 -0.520063 -0.982625 0.177875 -0.052375 -0.757 0.549 -0.354281 -0.786594 -0.0275 -0.616813 -0.830813 -0.554812 0.0435937 -0.796406 -0.518313 0.3115 -0.277594 -0.853375 0.441188 -0.927281 -0.248688 -0.279781 -0.278094 -0.0626875 -0.9585 0.0820938 0.723312 -0.685594 -0.138469 -0.219781 -0.965656 0.7665 0.338781 -0.545594 0.880313 0.110375 -0.461313 0.745125 0.457406 0.485312 0.892969 -0.124688 0.432469 0.144187 -0.315688 0.937813 0.135969 -0.611469 0.779469 0.285594 -0.388875 0.875875 0.721187 0.483281 0.496281 0.742063 0.549844 0.383375 0.74325 0.668531 -0.024375 0.381781 0.9065 -0.180187 0.0550938 0.992719 -0.107094 -0.154281 0.844312 -0.513094 -0.154188 0.844344 -0.513125 0.369 0.746094 0.554187 0.419688 -0.349094 0.837812 -0.725781 -0.597687 0.340562 -0.611687 -0.756688 0.230687 -0.0377812 0.246 0.9685 0.0146875 -0.862219 0.506312 -0.649781 -0.136688 0.747688 -0.676781 -0.573687 -0.461281 -0.882281 -0.311188 -0.353094 -0.273594 -0.6715 0.688594 0.441469 -0.889656 -0.116375 0.841719 -0.0865 0.532906 0.245656 0.192469 0.950031 -0.623781 0.339469 0.703969 -0.387594 0.5325 0.752437 -0.316188 0.943594 0.0980937 -0.222875 0.970094 0.095875 0.342094 0.726094 -0.596406 0.416187 0.807625 -0.417688 0.0036875 0.398688 -0.917063 -0.790688 0.556469 -0.255188 -0.570875 0.192687 0.798063 -0.119187 -0.686375 0.717375 0.633781 -0.773469 0.00478125 0.0634687 -0.564781 0.822781 0.79775 -0.597562 0.080375 -0.684563 0.0607813 0.726375 -0.361875 0.736094 0.572 -0.937312 -0.0805 -0.339 -0.801437 -0.362969 0.47525 0.00309375 -0.104375 -0.9945 0.846 -0.132281 -0.5165 0.701875 -0.199094 -0.683875 0.829188 -0.1605 -0.535375 0.6925 -0.380281 -0.613 0.764094 -0.640688 0.075 0.965594 0.204375 -0.160688 0.068 -0.714312 0.6965 -0.350188 0.901469 0.254375 -0.133094 0.767969 0.626469 -0.710469 0.703656 -0.00896875 -0.899031 0.386969 0.204781 -0.716594 0.2725 0.642 -0.339469 0.444781 0.828781 -0.472281 0.818469 0.327094 -0.6915 0.711375 -0.125375 -0.755406 0.444813 0.481094 -0.933469 0.159688 0.321094 -0.701219 0.205281 0.682719 -0.4465 0.223781 0.866313 -0.179281 0.242687 0.953375 -0.168469 0.523969 0.834875 0.00559375 0.540375 0.841375 0.002375 0.263469 0.964656 0.172562 0.320281 0.931437 0.172875 0.5645 0.807094 0.3955 0.5655 0.723688 0.445188 0.3565 0.821375 0.688125 0.486594 0.538219 0.695406 0.337281 0.6345 0.0802813 0.76375 0.640469 0.164375 0.743594 0.648094 -0.0161875 0.738281 0.674281 -0.046875 0.901688 0.429781 0.162594 0.838219 0.5205 0.363469 0.892375 0.267375 0.1975 0.956594 0.214188 0.576875 0.808469 -0.116469 0.547 0.809781 -0.212094 0.429875 0.886781 -0.169594 0.531563 0.839656 -0.111188 0.511469 0.773969 0.373281 0.263781 0.625406 0.734312 -0.335562 0.785344 0.520156 -0.198094 0.714375 0.671094 -0.222594 0.809313 0.5435 0.2755 0.850094 0.448781 0.268906 0.868344 -0.416719 -0.0839688 0.99175 -0.0967812 -0.442281 0.833875 -0.330187 -0.602406 0.787219 -0.131781 -0.993469 -0.089375 0.0707813 -0.9995 0.018 0.0251875 -0.689969 -0.196594 0.696594 -0.821375 -0.179688 0.541281 -0.991594 -0.110188 0.067375 -0.631844 -0.76275 0.137562 -0.719219 -0.690719 0.075 -0.719688 -0.562688 0.406687 -0.650813 0.0300937 0.758625 -0.285906 0.235188 0.928937 -0.0441875 -0.0375937 0.998312 -0.0242813 -0.114094 0.993156 -0.00028125 -0.013375 0.999906 0.2305 0.307094 0.923312 0.642125 0.128594 0.755719 0.748187 -0.044 0.662 0.91325 0.265875 0.308562 0.853156 -0.0302812 0.52075 0.692813 0.5815 0.426406 0.838437 0.527125 0.138281 0.447094 0.872094 -0.198781 0.977281 0.161875 -0.136594 0.942906 0.332594 0.017375 0.999812 0.014875 0.00978125 0.785781 -0.588687 0.189688 0.783094 -0.607281 0.133875 0.773375 -0.469281 0.426187 0.827937 -0.306375 0.469656 0.493656 -0.220687 0.841156 0.685188 -0.416187 0.597687 0.311281 -0.269406 0.911313 0.280187 -0.399687 0.87275 0.463656 -0.352469 0.812844 0.351781 -0.5905 0.726313 0.407187 -0.553094 0.726781 0.559875 -0.704562 0.435969 0.634562 -0.754875 0.165688 0.514188 -0.846406 0.138375 0.332687 -0.938125 0.0957813 0.287187 -0.949375 0.127188 0.296875 -0.755781 0.583594 0.265781 -0.487469 0.831656 0.310094 -0.710531 0.631625 0.085375 -0.931406 0.353781 0.228 -0.478406 0.848 -0.0605938 -0.581594 0.811188 -0.7975 -0.384094 0.465187 -0.620188 -0.771781 0.140188 -0.491313 -0.864313 0.107281 -0.326781 -0.941844 0.0779687 -0.283875 -0.952438 0.110469 -0.558875 -0.692875 0.455563 -0.341875 -0.737125 0.582844 -0.68775 -0.451063 0.56875 -0.533969 -0.226187 0.814656 -0.371281 -0.272969 0.887469 -0.112375 -0.300063 0.94725 -0.599219 -0.3575 0.716313 -0.0161875 -0.496156 0.868062 -0.398969 -0.576688 0.712875 -0.364062 -0.498875 0.786469 -0.327469 -0.723844 0.60725 -0.0925938 -0.932969 0.347781 -0.103594 -0.441063 0.891437 0.0272813 -0.581062 0.813375 -0.884063 -0.462875 0.0642812 -0.0175938 -0.600688 0.799281 -0.0055 -0.907812 0.419281 0.157781 -0.980187 0.119687 0.002375 -0.992219 0.124281 -0.152875 -0.981969 0.110875 -0.176781 0.569812 0.8025 -0.561375 0.690469 0.456156 -0.672281 0.739688 0.0286875 -0.582313 0.805906 -0.106781 -0.465875 0.572094 -0.675 -0.510125 0.483625 -0.711219 -0.302375 0.538562 -0.786438 -0.275156 0.63325 -0.723344 -0.667094 0.549594 -0.502875 -0.731375 0.345281 -0.588063 -0.778813 0.288 -0.557187 -0.975469 0.0377812 -0.216781 -0.801844 0.143594 -0.579969 -0.55975 0.248281 -0.790563 -0.237375 0.391781 -0.888875 0.0156875 0.361 -0.932406 -0.0445938 0.561281 -0.826406 0.202906 0.535719 -0.819625 0.249875 0.374094 -0.893062 0.409781 0.478063 -0.776844 0.554656 0.227062 -0.800469 0.785469 0.0800937 -0.613656 0.609062 0.351063 -0.711156 0.4965 0.598906 -0.628313 0.290781 0.5745 -0.765094 0.620875 0.376594 -0.687469 0.886781 0.247094 -0.390563 0.312687 0.776469 -0.547063 0.095875 0.739156 -0.666656 0.111469 0.635281 -0.764156 -0.0780938 0.670781 -0.7375 -0.142594 0.796469 -0.587594 -0.102469 0.842719 -0.528437 -0.054875 0.800188 -0.597188 0.352969 0.810562 -0.467281 0.746875 -0.0606875 -0.662156 0.638 -0.143688 -0.7565 0.520469 0.241375 -0.819031 0.205469 0.314469 -0.92675 0.012375 -0.0439687 -0.998937 0.0296875 -0.0769688 -0.996562 0.0395 -0.036875 -0.998531 -0.137594 0.339094 -0.930625 -0.4845 0.279281 -0.829 -0.710469 -0.0650937 -0.700688 -0.602781 -0.122188 -0.788469 -0.831781 0.0704688 -0.550594 -0.960531 -0.2275 -0.16 -0.90825 -0.140281 -0.394156 -0.547562 -0.68775 -0.476562 -0.764469 -0.57225 -0.296781 -0.724844 -0.577344 -0.375781 -0.389875 -0.630656 -0.670969 -0.675469 -0.651281 -0.345688 -0.619469 -0.576594 -0.532687 -0.433906 -0.418906 -0.797625 -0.5205 -0.188375 -0.832781 -0.299313 -0.240906 -0.923219 -0.346375 -0.253563 -0.903156 -0.185 -0.359281 -0.914688 0.0466875 -0.662219 -0.747813 -0.2655 -0.432 -0.861875 0.024 -0.679531 -0.733219 0.00428125 -0.6615 -0.749906 0.234688 -0.364 -0.901312 0.319875 -0.427969 -0.84525 0.390656 -0.251969 -0.885344 0.347281 -0.237469 -0.907156 0.564375 -0.188 -0.803781 0.407813 -0.514313 -0.754406 0.113875 -0.255688 -0.96 0.599469 -0.217187 -0.770344 0.426 -0.232594 -0.874281 0.399687 -0.521563 -0.753781 0.127281 -0.889969 -0.437875 0.145063 -0.914219 -0.37825 0.0155 -0.923937 -0.382187 -0.114594 -0.916 -0.384406 -0.0936875 -0.892438 -0.441312 -0.355375 -0.52875 -0.77075 -0.311969 -0.236781 -0.920094 -0.555875 -0.273187 -0.785062 -0.362188 -0.494906 -0.789813 -0.082 -0.251281 -0.964406 -0.179969 -0.522062 -0.833656 -0.315281 -0.849156 -0.423656 0.910469 -0.0401875 -0.411563 0.974719 -0.2 -0.0995 0.873375 0.021875 -0.4865 0.783687 -0.563781 -0.260688 0.746719 -0.572406 -0.338688 0.8185 -0.557906 -0.137 0.849969 -0.474562 0.228687 0.820594 -0.565687 0.0810938 0.680781 -0.694687 -0.232094 0.696375 -0.716781 0.0350938 0.701563 -0.642344 -0.308469 0.434 -0.626281 -0.647594 0.652906 -0.569906 -0.498906 0.473062 -0.422156 -0.77325 0.222594 -0.520563 -0.82425 0.345688 -0.845563 -0.406781 0.325594 -0.864688 -0.382469 0.264969 -0.926125 -0.268375 0.653562 -0.75175 -0.0874688 0.841031 -0.4155 -0.346406 0.657156 -0.66825 -0.348563 0.283375 -0.956969 -0.0622813 0.325 -0.940594 -0.0980937 0.162594 -0.980094 -0.113875 0.008875 -0.992094 -0.125094 0.503875 -0.843844 0.184375 0.691781 -0.687875 -0.219594 0.660594 -0.514094 -0.547094 -0.883656 0.122375 0.451781 -0.899781 -0.117781 0.420094 -0.85525 -0.488063 0.173969 -0.500063 -0.853281 0.147687 -0.6755 -0.6925 -0.253188 -0.454094 -0.847781 -0.273875 -0.6585 -0.689406 -0.301781 -0.607219 -0.549219 -0.574125 -0.692781 -0.720906 0.0175 -0.819906 -0.412313 -0.397094 -0.636969 -0.761781 -0.117969 -0.237875 -0.929688 -0.281188 -0.294688 -0.868312 -0.398906 -0.145281 -0.981812 -0.122094 -0.308562 -0.94425 -0.114688 -0.269688 -0.959969 -0.0754687 -0.6325 -0.676406 -0.377313 -0.031875 0.689875 -0.723188 -0.303813 0.716937 -0.627437 -0.242 0.6755 -0.6965 -0.498875 0.719875 -0.482563 -0.564562 0.72325 -0.397656 -0.220875 0.749469 -0.624062 -0.104594 0.993594 0.0422813 -0.785688 0.483594 0.385688 -0.905719 0.418687 -0.066 0.0884688 0.79275 0.603063 0.7815 0.623875 0.00128125 0.708281 0.540688 -0.453781 -0.243375 0.0427812 -0.968969 -0.937469 -0.0031875 -0.347969 0.677063 0.100781 -0.728969 0.926188 0.152 -0.345 0.929406 0.328 -0.169 0.948563 0.306781 0.0779687 -0.763313 0.0992813 0.638313 -0.906344 0.191687 0.376469 -0.986469 0.0594687 0.152688 -0.627563 -0.766281 0.137594 -0.962937 -0.262188 0.0631875 -0.230781 -0.629875 -0.741594 0.729594 -0.255594 -0.634281 0.948625 -0.0152812 -0.316 -0.193375 -0.311687 -0.930281 0.911062 -0.206687 -0.356687 0.9705 0.229188 -0.074375 -0.428313 -0.435906 0.7915 -0.939 -0.261875 -0.222875 0.1305 0.459906 -0.878313 -0.0321875 0.956406 -0.290188 -0.860219 0.4615 -0.216781 -0.748187 0.179281 -0.638781 0.763687 0.637281 0.103 0.871156 0.373781 -0.318375 0.675687 0.496688 0.544688 -0.140094 0.897406 0.418312 -0.907344 0.348406 0.235188 -0.222594 0.460469 0.859281 0.77325 0.0551875 0.631656 0.863063 0.272094 0.425469 0.951312 0.258 0.168594 0.940781 0.0654688 -0.332594 0.9915 0.0947812 0.089 0.132875 -0.178594 -0.974875 -0.548187 -0.700281 -0.457188 -0.874563 -0.232875 -0.425281 -0.963938 0.0172812 -0.265469 -0.993438 0.108375 -0.0357812 -0.982813 -0.00659375 0.184375 0.039375 -0.0761875 -0.996312 -0.99075 -0.0496875 0.126094 -0.840406 -0.110281 -0.530594 0.959938 -0.1775 -0.216781 0.876219 0.204375 0.436406 0.355406 0.774188 -0.523687 0.610781 0.6425 0.462687 -0.2095 0.968 0.138094 -0.471063 0.738469 0.482375 0.5285 0.449094 0.720406 -0.665187 0.52 -0.535781 -0.871094 0.283594 -0.400906 -0.17 0.6875 -0.706 -0.0652812 0.0325937 -0.997312 -0.121875 -0.131875 -0.983719 0.468594 0.675 -0.569875 0.546969 0.836438 -0.0337812 0.962844 0.158875 -0.218281 0.970906 0.074 -0.227687 0.528094 -0.582281 -0.618094 0.562094 -0.497781 -0.660469 -0.123187 -0.292406 -0.948313 -0.224281 -0.487094 -0.844031 0.5255 -0.608281 -0.594781 0.916438 -0.388063 0.097375 0.976313 -0.208094 -0.0591875 -0.614313 0.343906 0.710125 0.444687 0.145469 0.883781 0.926594 -0.347906 0.142594 0.599187 -0.358187 -0.715969 0.337687 -0.151094 0.929031 -0.614656 -0.112094 0.78075 -0.967969 -0.003375 -0.250969 -0.301969 -0.476156 -0.825844 -0.953062 -0.284375 -0.103875 0.395469 -0.438375 0.807063 -0.484719 -0.551813 0.678625 -0.806375 -0.571594 -0.151688 0.2345 -0.958375 -0.162687 0.455187 0.732188 0.506594 -0.569719 0.480312 0.666844 -0.624094 0.671219 0.399906 0.2305 0.963188 0.138187 0.724 0.487188 -0.488281 0.91 0.247 -0.332906 -0.286687 0.77375 -0.564875 -0.513656 0.85275 -0.094375 -0.405375 0.669062 -0.622875 0.197781 -0.145281 -0.969406 0.148281 0.0105937 -0.988875 0.250406 0.667406 -0.701312 -0.522844 -0.494563 -0.69425 -0.499063 -0.580562 -0.643281 -0.944031 0.101094 -0.313906 -0.935781 0.186594 -0.299094 0.189875 -0.315062 -0.929844 0.565906 0.337687 0.752094 0.9845 -0.04 -0.170594 0.275781 -0.509781 -0.814875 -0.496188 -0.601188 -0.626375 -0.934531 -0.354656 0.028375 -0.974781 -0.177281 -0.135469 -0.51 0.177594 0.841625 -0.945312 -0.317875 0.072875 -0.550125 -0.366094 -0.750531 0.348563 -0.506562 -0.788562 0.95025 -0.310562 -0.023375 0.546875 -0.106594 0.830375 -0.418281 -0.113469 0.901187 -0.237687 -0.961344 -0.138875 0.8055 -0.588781 -0.066875 0.421375 -0.529375 0.736281 -0.464906 -0.396406 0.791625 -0.5985 0.0535 0.799312 -0.828094 0.249 0.502187 0.143594 0.597875 0.788594 0.264 -0.0360937 0.963812 0.905219 0.215281 0.366313 0.934094 0.357 -0.0011875 0.99225 0.113094 -0.0512813 0.956344 -0.207188 0.205969 0.990188 -0.00909375 -0.139281 0.923312 -0.381281 -0.0456875 0.9115 -0.327688 0.2485 0.594375 0.804156 0.00246875 0.890188 -0.085375 0.447469 0.854062 0.0835937 -0.513375 -0.0252813 -0.0851875 -0.996031 -0.745906 -0.481906 -0.459688 -0.722281 -0.4845 0.4935 -0.656406 -0.631813 0.412187 -0.6255 -0.365094 0.6895 -0.930094 -0.181594 0.319187 -0.752406 -0.502 0.426406 -0.900375 -0.0954688 0.424469 -0.670187 -0.369188 0.643812 0.267469 -0.646688 0.714281 0.157 -0.906406 0.392094 0.137094 -0.649094 0.748219 0.142687 -0.403875 0.903594 -0.755562 0.618969 -0.214375 0.095 0.985031 -0.143688 -0.183687 0.729281 0.659063 0.771656 0.54075 0.334781 0.227094 0.788219 -0.571906 0.928344 0.355969 0.106969 -0.771688 0.4115 -0.484875 -0.893031 -0.253688 0.371594 -0.861938 0.0490937 0.504594 -0.623187 0.721 0.302875 -0.800156 -0.00996875 0.599656 -0.312969 -0.535375 0.784469 -0.321781 -0.451281 0.832313 -0.165281 0.723875 0.669781 0.341781 0.753187 0.562 0.319187 0.00428125 0.947656 0.540531 0.135406 0.830344 0.445188 -0.342781 0.827187 0.308062 0.412062 -0.857469 0.994406 0.0642812 -0.0835937 0.530688 -0.5095 0.677281 0.5625 -0.517 0.645187 0.963875 -0.161469 -0.211781 0.329188 0.0445938 -0.943187 -0.722313 0.138094 -0.677594 -0.878313 -0.428781 0.211375 -0.282781 -0.66 0.696 -0.305969 -0.534469 0.787844 -0.884094 -0.448906 0.129688 -0.637187 -0.0830937 -0.766187 0.888594 -0.3935 -0.235594 0.3 -0.264875 -0.916406 -0.585156 -0.321187 -0.744563 -0.0281875 -0.997469 -0.0647812 0.765844 0.601937 -0.226063 0.197281 0.751188 0.629875 -0.0787812 0.983094 -0.165187 -0.213281 0.779156 -0.589375 0.779156 0.388375 -0.491969 -0.763375 0.560281 0.321375 -0.922687 0.373094 0.0971875 -0.338688 0.77175 0.538156 0.195187 0.739219 0.644531 0.808969 -0.0162813 0.587594 0.860031 0.0440938 0.508313 0.634219 0.717531 0.287906 0.304688 -0.517187 0.799781 0.329875 -0.433688 0.838469 -0.531313 0.159906 0.831937 -0.322 0.0275938 0.946312 0.888094 -0.26 0.379 -0.2995 0.400187 -0.866094 0.725625 0.111781 -0.678906 0.866594 -0.447594 0.2205 0.895688 -0.418281 0.150688 0.609625 -0.1925 -0.768938 -0.321969 -0.0785938 -0.943469 -0.993094 0.0785938 -0.086875 -0.537906 -0.496406 0.681313 -0.452219 -0.317594 0.833406 0.268187 -0.659 0.702688 0.314687 -0.38 0.869781 -0.595719 -0.442594 0.670219 -0.947094 -0.220687 -0.233 0.609688 -0.508281 -0.608187 -0.258375 -0.566094 -0.782781 -0.846094 -0.521094 -0.112 0.104188 -0.955875 0.274594 -0.572594 0.809187 -0.131594 0.00078125 0.377 -0.926188 0.232781 0.580375 -0.780344 -0.129594 0.991094 -0.030375 -0.0881875 0.576281 0.812469 -0.371969 0.404281 0.835563 0.692312 0.704313 0.156875 0.617188 0.677594 -0.399875 0.865406 0.00428125 -0.501 0.856594 -0.199594 -0.475781 0.644687 0.740687 0.188875 0.343969 0.758781 0.553062 0.631469 0.0274688 0.774875 0.646187 -0.121188 0.753469 0.810063 -0.570781 0.134094 0.463406 -0.332188 0.8215 0.2805 -0.498875 0.82 -0.581688 0.119875 0.8045 -0.874156 0.444469 -0.195562 -0.201375 0.110094 -0.973281 0.611906 -0.486594 -0.6235 0.767656 -0.308469 -0.561688 0.79325 -0.588469 0.156281 0.706969 -0.692781 0.142094 -0.977719 -0.0187813 -0.209 -0.35325 -0.175281 -0.918938 -0.697094 -0.169094 0.696719 0.247187 -0.451781 0.857188 0.88 -0.439187 0.180688 -0.571063 -0.473875 0.670281 -0.849594 -0.495875 -0.179594 -0.250375 -0.487781 -0.83625 0.566094 -0.458594 -0.684969 0.203875 -0.977687 0.0504688 0.110969 0.526688 0.84275 0.192094 0.981094 0.0234687 0.624406 0.776812 -0.0812813 0.382875 0.336 0.8605 -0.647594 0.739688 0.182781 -0.183094 0.633563 -0.751688 0.038 0.423594 -0.905031 0.903375 0.397687 -0.160375 0.223594 0.147281 -0.963469 0.575 0.0406875 0.817125 -0.323094 -0.527188 0.785906 -0.496688 -0.344 0.796812 -0.641469 0.0262813 0.766656 -0.3025 0.749812 0.588406 -0.610563 0.764781 0.205594 -0.668969 -0.117688 0.733875 -0.850594 -0.517281 0.0942812 -0.854312 -0.124875 -0.5045 -0.856469 0.0851875 -0.509063 -0.5675 0.734875 -0.371281 -0.833687 -0.540094 0.114875 -0.745656 -0.659469 0.0950937 -0.628875 -0.4195 -0.654594 -0.776219 -0.229594 -0.587125 -0.580688 -0.373188 -0.7235 -0.92275 -0.355969 0.147594 0.361156 -0.169969 -0.916844 0.975594 -0.097875 -0.196375 0.672781 -0.272281 0.687875 -0.29 -0.4745 0.831094 0.484781 -0.580281 0.654375 0.772969 -0.605969 -0.187781 0.197875 -0.488562 -0.84975 -0.348781 -0.937156 0.0076875 -0.232875 0.566469 0.790469 -0.160469 0.964437 0.209875 0.589969 0.586688 0.554688 0.745625 0.661219 0.082375 0.687594 -0.0522812 0.724187 0.908875 0.221188 0.3535 -0.156687 -0.370406 0.915531 -0.8995 -0.2275 0.373 -0.907188 0.364688 0.209688 -0.952281 0.273875 -0.1345 -0.99875 0.0495938 0.00546875 -0.851094 -0.524688 0.0165938 0.0066875 -0.893125 0.449719 0.842156 -0.357062 0.403969 0.892594 0.0415 0.448906 0.803094 -0.401406 0.440281 0.416906 0.836312 0.356 0.801906 -0.255906 -0.539813 0.799031 -0.513062 0.313469 -0.0140938 0.017375 -0.999719 -0.880156 -0.0635938 -0.470375 -0.833281 -0.317281 0.452688 -0.798906 -0.521594 0.299406 -0.991156 -0.108469 0.0759687 -0.756063 0.641563 0.129187 0.0156875 -0.695875 0.717969 -0.00259375 -0.521094 0.853469 0.018375 0.940313 -0.339781 0.739062 0.637187 0.218469 0.280187 0.722594 0.631906 -0.390969 0.707563 0.588562 -0.826594 0.561469 0.0380937 -0.725 0.358281 -0.588188 -0.219 0.291 -0.931313 0.402187 0.354688 -0.844031 0.769 0.525406 -0.364094 -0.5175 0.0920938 0.850688 -0.979156 0.0195937 0.202094 -0.84325 -0.0359688 -0.536281 -0.917 -0.173781 0.359 -0.913906 -0.162594 -0.371906 -0.437687 -0.217094 0.8725 0.295281 -0.305 0.905406 0.250094 0.107094 0.96225 0.855469 0.0435937 0.515969 0.971906 -0.0200938 -0.234406 0.511375 -0.0635938 -0.856969 -0.217688 -0.0572812 -0.974312 -0.366969 -0.211375 -0.905875 -0.859875 0.167875 -0.482062 -0.441219 -0.147781 -0.885125 0.448094 0.292594 -0.844719 0.383469 -0.266781 -0.884156 0.846812 -0.352094 -0.398594 0.839344 -0.367969 0.400063 0.355875 -0.107875 0.92825 -0.299062 0.0449688 0.953156 -0.909969 0.115969 0.398062 0.867906 0.0965938 0.487188 0.884969 0.310469 -0.346969 -0.274875 0.93825 -0.209969 0.134687 0.7035 0.697781 -0.4755 0.588687 0.653687 0.629406 0.735625 0.250281 0.634 0.619812 -0.462406 0.181 0.4145 -0.891844 -0.427875 0.318375 -0.845875 -0.852656 0.343188 -0.393875 -0.848437 0.482656 0.217063 0.306906 0.0555 0.950094 0.890906 0.099 0.443188 0.936188 0.0685 -0.344687 0.432687 0.0135 -0.901406 0.971219 -0.137 -0.194781 0.568187 -0.0210938 -0.822594 0.847313 -0.2615 0.462187 0.285406 -0.404094 0.869031 -0.4375 -0.042375 0.898188 -0.941219 -0.097875 0.323188 -0.8875 -0.093875 -0.451094 -0.326469 -0.0392812 -0.944375 -0.213469 -0.0461875 -0.975844 -0.197281 0.220781 -0.955156 0.490281 0.277281 -0.82625 -0.805562 0.325781 -0.494875 -0.819375 -0.194375 -0.539281 -0.905781 -0.401 0.136781 -0.425563 -0.478281 0.768156 0.704906 0.047375 0.707687 0.207563 -0.288281 0.93475 0.979656 0.184781 -0.0779687 -0.587906 -0.131094 0.798219 -0.963344 0.213375 0.162469 0.227687 0.831875 0.506063</float_array>
                    <technique_common>
                        <accessor count="690" source="#ID14" stride="3">
                            <param name="X" type="float"/>
                            <param name="Y" type="float"/>
                            <param name="Z" type="float"/>
                        </accessor>
                    </technique_common>
                </source>
                <source id="ID15">
                    <float_array id="ID16" count="622">0.5693 0.9019 0.5693 0.8574 0.541 0.8575 0.5408 0.902 0.6004 0.9018 0.6004 0.8573 0.6004 0.9538 0.5693 0.9538 0.5409 0.9663 0.5123 0.902 0.5123 0.9663 0.5411 0.9836 0.5124 0.9836 0.4788 0.977 0.4789 0.9943 0.4489 0.977 0.4488 0.9943 0.4489 0.9538 0.4788 0.9538 0.4788 0.902 0.5123 0.8576 0.4788 0.8575 0.4489 0.9019 0.421 0.9538 0.421 0.9769 0.421 0.9943 0.4489 0.8574 0.421 0.9018 0.421 0.8573 0.5693 0.9943 0.5693 0.977 0.6004 0.9769 0.6007 0.9943 0.776 0.8712 0.7875 0.8909 0.8162 0.8587 0.7884 0.8542 0.7572 0.871 0.7403 0.8895 0.748 0.85 0.7249 0.8438 0.7574 0.8323 0.7451 0.8129 0.7777 0.8326 0.7966 0.8108 0.8174 0.9265 0.7056 0.928 0.6885 0.8322 0.6733 0.768 0.7271 0.7608 0.7921 0.7532 0.8732 0.7413 0.8778 0.8112 0.9821 0.8024 0.9821 0.736 0.8901 0.8666 0.9821 0.8747 0.9821 0.9401 0.8977 0.9339 0.7828 0.9714 0.848 0.9946 0.8738 0.977 0.9021 0.9735 0.9324 0.9799 0.9355 0.991 0.9821 0.9867 0.6503 0.8822 0.5911 0.835 0.6167 0.7703 0.7192 0.7078 0.668 0.7068 0.5773 0.7256 0.6163 0.666 0.6599 0.6081 0.7094 0.6394 0.7766 0.6988 0.8245 0.6993 0.8978 0.6725 0.9821 0.6682 0.7395 0.6544 0.7949 0.6617 0.7825 0.6408 0.8263 0.6642 0.8685 0.6478 0.8181 0.6455 0.8553 0.6266 0.8116 0.6286 0.7923 0.6154 0.7648 0.5926 0.7257 0.5413 0.8144 0.4938 0.8272 0.5557 0.8363 0.593 0.8457 0.6112 0.8775 0.5871 0.9152 0.537 0.8852 0.617 0.9235 0.6151 0.9821 0.6149 0.9821 0.5383 0.9072 0.4702 0.9821 0.4636 0.1798 0.8782 0.1878 0.813 0.101 0.8208 0.0954 0.8862 0.2637 0.8774 0.2809 0.7958 0.3384 0.821 0.3023 0.915 0.3733 0.8697 0.4435 0.8335 0.4117 0.7719 0.3605 0.7682 0.2928 0.7257 0.1926 0.7412 0.1069 0.7548 0.0156 0.7589 0.0156 0.8232 0.2314 0.9624 0.1775 0.93 0.1011 0.9383 0.0156 0.8939 0.0595 0.9404 0.0156 0.9419 0.0452 0.9905 0.0156 0.9909 0.1244 0.9886 0.171 0.9912 0.1827 0.6914 0.2587 0.6776 0.1551 0.7141 0.112 0.7173 0.0745 0.6949 0.0156 0.6996 0.2989 0.6851 0.3439 0.6593 0.3836 0.7073 0.46 0.7189 0.4107 0.6448 0.3832 0.5911 0.3215 0.6467 0.302 0.6634 0.2712 0.6582 0.2309 0.6504 0.2569 0.6425 0.1838 0.6573 0.1614 0.664 0.1655 0.6827 0.1442 0.6986 0.1167 0.7011 0.0973 0.6885 0.0736 0.6548 0.0997 0.6595 0.0156 0.6466 0.1297 0.689 0.1453 0.6746 0.1126 0.677 0.1324 0.6624 0.1191 0.6478 0.1099 0.6332 0.095 0.6002 0.0156 0.5938 0.1434 0.6506 0.1517 0.6362 0.3437 0.6113 0.3212 0.6191 0.3029 0.6435 0.2807 0.6431 0.1673 0.6101 0.2226 0.6214 0.2556 0.6208 0.2791 0.6192 0.2669 0.6013 0.243 0.578 0.1772 0.5406 0.0902 0.5265 0.0156 0.5214 0.0905 0.4609 0.1925 0.4735 0.2995 0.5685 0.3059 0.5149 0.2946 0.5958 0.3026 0.6197 0.0156 0.4552 0.0878 0.9884 0.4261 0.5749 0.4804 0.7004 0.5296 0.6775 0.5057 0.5952 0.5682 0.7388 0.4973 0.432 0.5586 0.4934 0.6104 0.5532 0.5826 0.6065 0.5864 0.6524 0.6502 0.4581 0.6598 0.538 0.6189 0.374 0.7358 0.3986 0.7452 0.4653 0.7044 0.5458 0.2569 0.4278 0.1975 0.3639 0.1469 0.4337 0.0767 0.3711 0.1598 0.3202 0.2431 0.3816 0.2567 0.3245 0.2912 0.3317 0.2856 0.3825 0.2565 0.3244 0.3761 0.3705 0.3469 0.4114 0.4247 0.3372 0.3071 0.2866 0.2995 0.243 0.2468 0.2671 0.215 0.2143 0.275 0.194 0.2469 0.267 0.031 0.29 0.1335 0.2542 0.1837 0.1507 0.2384 0.1253 0.1219 0.1678 0.0357 0.1678 0.1447 0.0849 0.0982 0.0703 0.1816 0.0298001 0.8863 0.4081 0.8492 0.3814 0.8137 0.4507 0.9214 0.4429 0.8553 0.3372 0.9218 0.3317 0.8353 0.2952 0.8918 0.2639 0.7808 0.2598 0.8774 0.19 0.8224 0.1651 0.805 0.2707 0.9051 0.1135 0.8598 0.0875 0.816 0.0592 0.7763 0.1087 0.9886 0.3345 0.9661 0.2451 0.9338 0.1816 0.945 0.128 0.9277 0.0621001 0.8875 0.0411 0.8545 0.0171 0.9632 0.0783 0.7584 0.3451 0.7201 0.3321 0.7422 0.3077 0.7755 0.3077 0.7962 0.3285 0.7974 0.3593 0.7789 0.3828 0.7448 0.3837 0.7213 0.3646 0.738 0.2501 0.738 0.2166 0.6931 0.2166 0.6931 0.2501 0.738 0.2856 0.6931 0.2856 0.6368 0.2501 0.6368 0.2856 0.6368 0.2166 0.6368 0.1833 0.6931 0.1833 0.738 0.1833 0.6931 0.1493 0.738 0.1494 0.6931 0.1176 0.738 0.1176 0.6931 0.0862 0.738 0.0862 0.6931 0.0562 0.738 0.0562 0.6931 0.0265 0.738 0.0265 0.6368 0.0267 0.6368 0.0562 0.5726 0.0268 0.5726 0.0563 0.5519 0.0267 0.5519 0.0562 0.5519 0.0862 0.5726 0.0862 0.6368 0.0862 0.6368 0.1176 0.6368 0.1493 0.5725 0.1833 0.5725 0.2166 0.5725 0.2501 0.5726 0.2856 0.5519 0.2856 0.5518 0.2167 0.5518 0.1833 0.5725 0.1493 0.5725 0.1176 0.5518 0.1176 0.5518 0.1494 0.4569 0.7421 0.4561 0.846 0.5614 0.8459 0.5616 0.7421</float_array>
                    <technique_common>
                        <accessor count="311" source="#ID16" stride="2">
                            <param name="S" type="float"/>
                            <param name="T" type="float"/>
                        </accessor>
                    </technique_common>
                </source>
                <vertices id="ID17">
                    <input semantic="POSITION" source="#ID11"/>
                </vertices>
                <triangles count="1320" material="Material1">
                    <input offset="0" semantic="VERTEX" source="#ID17"/>
                    <input offset="1" semantic="NORMAL" source="#ID13"/>
                    <input offset="2" semantic="TEXCOORD" source="#ID15" set="0"/>
                    <p>1 2 2 2 1 1 3 0 0 0 3 3 1 2 2 3 0 0 2 4 1 4 4 5 5 4 4 3 4 0 2 4 1 5 4 4 3 0 0 5 6 4 7 5 6 6 7 7 3 0 0 7 5 6 6 7 7 8 8 8 0 3 3 3 0 0 6 7 7 0 3 3 8 9 8 9 9 10 10 9 9 0 9 3 8 9 8 10 9 9 9 11 10 8 8 8 12 10 11 11 12 12 9 11 10 12 10 11 11 12 12 13 14 14 14 13 13 9 11 10 11 12 12 14 13 13 13 14 14 15 16 16 16 15 15 14 13 13 13 14 14 16 15 15 14 13 13 16 15 15 18 17 17 17 18 18 14 13 13 18 17 17 17 18 18 9 11 10 14 13 13 9 20 10 17 18 18 19 19 19 10 21 9 9 20 10 19 19 19 0 23 3 10 21 9 20 22 20 1 24 2 0 23 3 20 22 20 10 21 9 19 19 19 21 25 21 20 22 20 10 21 9 21 25 21 17 18 18 18 17 17 22 26 22 19 19 19 17 18 18 22 26 22 16 15 15 23 27 24 7 5 23 18 17 17 16 15 15 7 5 23 23 27 24 16 15 15 15 16 16 24 28 25 23 27 24 15 16 16 19 19 19 22 26 22 25 29 26 21 25 21 19 19 19 25 29 26 18 17 17 7 30 23 5 6 27 22 26 22 18 17 17 5 6 27 22 26 22 5 6 27 4 31 28 25 29 26 22 26 22 4 31 28 8 8 8 26 33 30 27 32 29 12 10 11 8 8 8 27 32 29 8 8 8 6 7 7 26 33 30 6 7 7 7 5 6 23 27 31 26 33 30 6 7 7 23 27 31 26 33 30 23 27 31 24 28 32 27 32 29 26 33 30 24 28 32 29 36 28 30 35 27 31 34 22 28 37 26 29 36 28 31 34 22 28 37 26 31 34 22 33 38 19 32 39 21 28 37 26 33 38 19 32 39 21 33 38 19 35 40 9 34 41 20 32 39 21 35 40 9 34 41 20 35 40 9 37 42 3 36 43 2 34 41 20 37 42 3 35 40 9 38 45 10 39 44 8 37 42 3 35 40 9 39 44 8 38 45 10 35 40 9 33 38 19 40 46 18 38 45 10 33 38 19 40 46 18 33 38 19 31 34 22 41 47 17 40 46 18 31 34 22 41 47 17 31 34 22 30 35 27 42 48 23 41 47 17 30 35 27 42 48 23 43 50 24 44 49 15 41 47 17 42 48 23 44 49 15 41 47 17 44 49 15 45 51 13 40 46 18 41 47 17 45 51 13 38 52 10 40 52 18 45 52 13 45 51 13 46 54 14 47 53 12 38 45 10 45 51 13 47 53 12 38 45 10 47 53 12 48 55 11 39 44 8 38 45 10 48 55 11 37 42 3 39 44 8 50 56 7 49 57 0 37 42 3 50 56 7 50 56 7 39 44 8 51 58 30 39 44 8 48 55 11 52 59 29 51 58 30 39 44 8 52 59 29 51 58 30 52 59 29 53 60 32 43 50 31 51 58 30 53 60 32 43 50 31 42 48 6 50 56 7 51 58 30 43 50 31 50 56 7 42 48 6 30 35 4 49 57 0 50 56 7 42 48 6 49 57 0 30 35 4 29 36 5 54 61 1 49 57 0 30 35 4 54 61 1 49 57 0 54 61 1 36 43 2 37 42 3 49 57 0 36 43 2 46 54 14 45 51 13 44 49 15 55 62 16 46 54 14 44 49 15 55 62 16 44 49 15 43 50 24 53 60 25 55 62 16 43 50 24 56 64 35 57 63 34 20 22 33 21 25 36 56 64 35 20 22 33 57 63 34 58 65 38 1 2 37 20 22 33 57 63 34 1 2 37 58 65 38 59 66 40 2 1 39 1 2 37 58 65 38 2 1 39 59 66 40 60 67 42 4 31 41 2 1 39 59 66 40 4 31 41 60 67 42 61 68 44 25 29 43 4 31 41 60 67 42 25 29 43 61 68 44 56 64 35 21 25 36 25 29 43 61 68 44 21 25 36 62 69 45 57 63 34 56 64 35 58 65 38 57 63 34 62 69 45 58 65 38 62 69 45 63 70 46 58 65 38 63 70 46 64 71 47 64 71 47 59 66 40 58 65 38 60 67 42 59 66 40 64 71 47 60 67 42 64 71 47 66 72 48 65 73 49 60 67 42 66 72 48 60 67 42 65 73 49 67 74 50 61 68 44 60 67 42 67 74 50 61 68 44 67 74 50 69 75 51 68 76 52 61 68 44 69 75 51 69 75 51 70 78 54 71 77 53 68 76 52 69 75 51 71 77 53 71 77 53 70 78 54 73 79 51 72 80 52 71 77 53 73 79 51 73 79 51 74 82 50 75 81 44 72 80 52 73 79 51 75 81 44 74 82 50 76 84 49 77 83 42 75 81 44 74 82 50 77 83 42 77 83 42 29 36 41 28 37 43 75 81 44 77 83 42 28 37 43 75 81 44 28 37 43 32 39 36 78 85 35 75 81 44 32 39 36 78 85 35 79 86 55 72 80 52 75 81 44 78 85 35 72 80 52 72 80 52 79 86 55 80 87 56 71 77 53 72 80 52 80 87 56 79 86 55 81 89 58 82 88 57 80 87 56 79 86 55 82 88 57 81 89 58 79 86 55 78 85 35 83 90 45 81 89 58 78 85 35 84 91 34 83 90 45 78 85 35 84 91 34 85 92 38 83 90 45 83 90 45 85 92 38 86 93 46 86 93 46 87 94 59 83 90 45 83 90 45 87 94 59 88 95 60 88 95 60 89 96 61 83 90 45 83 90 45 89 96 61 81 89 58 90 97 62 81 89 58 89 96 61 81 89 58 90 97 62 91 98 63 91 98 63 82 88 57 81 89 58 82 88 57 92 100 58 93 99 55 80 87 56 82 88 57 93 99 55 82 88 57 94 101 63 92 100 58 95 102 64 94 101 63 82 88 57 82 88 57 96 103 65 95 102 64 82 88 57 97 104 64 96 103 65 97 104 64 82 88 57 91 98 63 98 105 66 64 71 47 63 70 46 99 106 67 64 71 47 98 105 66 99 106 67 100 107 68 64 71 47 66 72 48 64 71 47 100 107 68 66 72 48 101 109 70 102 108 69 65 73 49 66 72 48 102 108 69 66 72 48 100 107 68 101 109 70 103 110 71 101 109 70 100 107 68 103 110 71 104 111 72 101 109 70 104 111 72 105 112 73 101 109 70 106 113 74 101 109 70 105 112 73 106 113 74 102 108 69 101 109 70 65 73 49 102 108 69 107 114 75 67 74 50 65 73 49 107 114 75 107 114 75 108 115 76 67 74 50 67 74 50 108 115 76 69 75 51 109 116 77 69 75 51 108 115 76 69 75 51 109 116 77 110 117 78 70 78 54 69 75 51 110 117 78 110 117 78 111 118 77 73 79 51 70 78 54 110 117 78 73 79 51 73 79 51 111 118 77 112 119 76 112 119 76 74 82 50 73 79 51 112 119 76 113 120 75 74 82 50 113 120 75 114 121 69 76 84 49 74 82 50 113 120 75 76 84 49 114 121 69 115 123 70 116 122 48 76 84 49 114 121 69 116 122 48 116 122 48 117 124 47 77 83 42 76 84 49 116 122 48 77 83 42 118 125 40 77 83 42 117 124 47 118 125 40 117 124 47 85 92 38 86 93 46 85 92 38 117 124 47 117 124 47 119 126 66 86 93 46 117 124 47 120 127 67 119 126 66 121 128 68 120 127 67 117 124 47 117 124 47 116 122 48 121 128 68 121 128 68 116 122 48 115 123 70 115 123 70 122 129 71 121 128 68 123 130 72 122 129 71 115 123 70 124 131 73 123 130 72 115 123 70 115 123 70 125 132 74 124 131 73 114 121 69 125 132 74 115 123 70 125 132 74 114 121 69 126 133 79 126 133 79 114 121 69 113 120 75 126 133 79 113 120 75 128 134 80 127 135 81 126 133 79 128 134 80 128 134 80 113 120 75 112 119 76 129 136 82 128 134 80 112 119 76 112 119 76 111 118 77 130 137 83 129 136 82 112 119 76 130 137 83 130 137 83 131 139 85 132 138 84 129 136 82 130 137 83 132 138 84 129 136 82 132 138 84 128 134 80 128 134 80 132 138 84 133 140 86 127 135 81 128 134 80 133 140 86 127 135 81 133 140 86 134 141 87 134 141 87 135 142 88 126 133 79 127 135 81 134 141 87 126 133 79 126 133 79 135 142 88 125 132 74 125 132 74 135 142 88 136 143 89 124 131 73 125 132 74 136 143 89 135 142 88 137 145 91 138 144 90 136 143 89 135 142 88 138 144 90 137 145 91 135 142 88 134 141 87 139 146 92 137 145 91 134 141 87 134 141 87 133 140 86 140 147 93 139 146 92 134 141 87 140 147 93 139 146 92 140 147 93 141 148 94 139 146 92 141 148 94 142 149 95 137 145 91 139 146 92 142 149 95 142 149 95 141 148 94 144 150 96 143 151 97 142 149 95 144 150 96 143 151 97 144 150 96 130 137 83 111 118 77 143 151 97 130 137 83 144 150 96 131 139 85 130 137 83 131 139 85 144 150 96 141 148 94 140 147 93 131 139 85 141 148 94 102 108 69 145 152 79 107 114 75 102 108 69 106 113 74 145 152 79 146 153 88 145 152 79 106 113 74 106 113 74 105 112 73 147 154 89 146 153 88 106 113 74 147 154 89 146 153 88 147 154 89 149 155 90 148 156 91 146 153 88 149 155 90 148 156 91 150 158 92 151 157 87 146 153 88 148 156 91 151 157 87 151 157 87 152 159 81 145 152 79 146 153 88 151 157 87 145 152 79 145 152 79 152 159 81 153 160 80 107 114 75 145 152 79 153 160 80 153 160 80 154 161 82 108 115 76 107 114 75 153 160 80 108 115 76 108 115 76 154 161 82 155 162 83 109 116 77 108 115 76 155 162 83 155 162 83 154 161 82 157 163 84 156 164 85 155 162 83 157 163 84 157 163 84 154 161 82 153 160 80 153 160 80 152 159 81 158 165 86 157 163 84 153 160 80 158 165 86 158 165 86 152 159 81 151 157 87 151 157 87 150 158 92 159 166 93 158 165 86 151 157 87 159 166 93 159 166 93 150 158 92 160 167 94 150 158 92 148 156 91 161 168 95 160 167 94 150 158 92 161 168 95 161 168 95 162 170 97 163 169 96 160 167 94 161 168 95 163 169 96 162 170 97 109 116 77 155 162 83 163 169 96 162 170 97 155 162 83 156 171 85 163 171 96 155 171 83 156 164 85 159 166 93 160 167 94 163 169 96 156 164 85 160 167 94 110 117 78 164 172 98 143 151 97 111 118 77 110 117 78 143 151 97 110 117 78 109 116 77 162 170 97 164 172 98 110 117 78 162 170 97 162 170 97 161 168 95 165 173 99 164 172 98 162 170 97 165 173 99 165 173 99 142 149 95 143 151 97 164 172 98 165 173 99 143 151 97 137 145 91 142 149 95 166 174 100 138 144 90 137 145 91 166 174 100 166 174 100 142 149 95 165 173 99 167 175 101 166 174 100 165 173 99 165 173 99 161 168 95 168 176 100 167 175 101 165 173 99 168 176 100 168 176 100 161 168 95 148 156 91 149 155 90 168 176 100 148 156 91 169 177 62 92 100 58 94 101 63 92 100 58 169 177 62 170 178 61 170 178 61 62 69 45 92 100 58 170 178 61 171 179 60 62 69 45 172 180 59 62 69 45 171 179 60 172 180 59 63 70 46 62 69 45 92 100 58 62 69 45 56 64 35 93 99 55 92 100 58 56 64 35 80 87 56 93 99 55 68 76 52 71 77 53 80 87 56 68 76 52 68 76 52 93 99 55 56 64 35 61 68 44 68 76 52 56 64 35 84 91 34 34 41 33 36 43 37 85 92 38 84 91 34 36 43 37 85 92 38 36 43 37 54 61 39 118 125 40 85 92 38 54 61 39 118 125 40 54 61 39 29 36 41 77 83 42 118 125 40 29 36 41 34 41 33 84 91 34 78 85 35 32 39 36 34 41 33 78 85 35 174 183 104 175 182 103 176 181 102 173 184 105 174 183 104 176 181 102 175 182 103 177 186 107 178 185 106 176 181 102 175 182 103 178 185 106 179 187 108 178 185 106 177 186 107 178 185 106 179 187 108 63 70 109 98 105 110 63 70 109 179 187 108 99 106 111 98 105 110 179 187 108 99 106 111 179 187 108 100 107 112 180 188 113 100 107 112 179 187 108 179 187 108 177 186 107 180 188 113 181 189 114 180 188 113 177 186 107 181 189 114 177 186 107 175 182 103 182 190 115 181 189 114 175 182 103 175 182 103 174 183 104 183 191 116 182 190 115 175 182 103 183 191 116 174 183 104 184 193 118 185 192 117 183 191 116 174 183 104 185 192 117 185 192 117 184 193 118 187 194 104 186 195 116 185 192 117 187 194 104 186 195 116 187 194 104 189 196 103 188 197 115 186 195 116 189 196 103 189 196 103 190 199 107 191 198 114 188 197 115 189 196 103 191 198 114 189 196 103 192 201 102 193 200 106 190 199 107 189 196 103 193 200 106 193 200 106 194 202 108 190 199 107 190 199 107 194 202 108 195 203 113 121 128 112 195 203 113 194 202 108 194 202 108 120 127 111 121 128 112 119 126 110 120 127 111 194 202 108 86 93 109 119 126 110 194 202 108 194 202 108 193 200 106 86 93 109 193 200 106 196 204 120 87 94 119 86 93 109 193 200 106 87 94 119 193 200 106 192 201 102 196 204 120 192 201 102 197 206 105 198 205 121 196 204 120 192 201 102 198 205 121 192 201 102 189 196 103 187 194 104 197 206 105 192 201 102 187 194 104 197 206 105 187 194 104 184 193 118 199 207 122 197 206 105 184 193 118 184 193 118 174 183 104 173 184 105 199 207 122 184 193 118 173 184 105 173 184 105 200 208 123 199 207 122 201 209 124 199 207 122 200 208 123 201 209 124 200 208 123 95 102 125 96 103 126 201 209 124 95 102 125 201 209 124 96 103 126 97 104 125 202 210 123 201 209 124 97 104 125 199 207 122 201 209 124 202 210 123 202 210 123 197 206 105 199 207 122 197 206 105 202 210 123 198 205 121 196 204 120 198 205 121 203 211 127 196 204 120 203 211 127 88 95 128 88 95 128 87 94 119 196 204 120 195 203 113 191 198 114 190 199 107 191 198 114 204 213 130 205 212 129 188 197 115 191 198 114 205 212 129 188 197 115 205 212 129 206 214 131 186 195 116 188 197 115 206 214 131 206 214 131 207 215 132 186 195 116 207 215 132 208 216 133 186 195 116 186 195 116 208 216 133 209 217 134 185 192 117 186 195 116 209 217 134 209 217 134 210 218 133 183 191 116 185 192 117 209 217 134 183 191 116 210 218 133 211 219 132 183 191 116 211 219 132 212 220 131 183 191 116 182 190 115 183 191 116 212 220 131 213 221 129 182 190 115 212 220 131 213 221 129 214 222 130 181 189 114 182 190 115 213 221 129 181 189 114 181 189 114 214 222 130 215 223 135 181 189 114 215 223 135 217 224 136 216 225 137 181 189 114 217 224 136 180 188 113 181 189 114 216 225 137 180 188 113 216 225 137 100 107 112 103 110 138 100 107 112 216 225 137 103 110 138 216 225 137 104 111 139 216 225 137 217 224 136 105 112 140 104 111 139 216 225 137 105 112 140 215 223 135 218 227 142 219 226 141 217 224 136 215 223 135 219 226 141 218 227 142 215 223 135 214 222 130 220 228 143 218 227 142 214 222 130 220 228 143 214 222 130 222 229 144 221 230 145 220 228 143 222 229 144 214 222 130 213 221 129 223 231 146 222 229 144 214 222 130 223 231 146 213 221 129 224 233 148 225 232 147 223 231 146 213 221 129 225 232 147 224 233 148 213 221 129 212 220 131 226 234 149 224 233 148 212 220 131 226 234 149 212 220 131 211 219 132 227 235 150 226 234 149 211 219 132 227 235 150 211 219 132 210 218 133 228 236 151 227 235 150 210 218 133 228 236 151 210 218 133 230 237 152 229 238 153 228 236 151 230 237 152 210 218 133 209 217 134 231 239 154 230 237 152 210 218 133 231 239 154 231 239 154 209 217 134 208 216 133 232 240 152 231 239 154 208 216 133 232 240 152 208 216 133 234 241 151 233 242 153 232 240 152 234 241 151 208 216 133 207 215 132 235 243 150 234 241 151 208 216 133 235 243 150 207 215 132 206 214 131 236 244 149 235 243 150 207 215 132 236 244 149 206 214 131 205 212 129 237 245 148 236 244 149 206 214 131 237 245 148 237 245 148 238 247 156 239 246 155 236 244 149 237 245 148 239 246 155 235 243 150 236 244 149 239 246 155 235 243 150 239 246 155 240 248 157 234 241 151 235 243 150 240 248 157 233 242 153 234 241 151 240 248 157 233 242 153 240 248 157 242 249 158 241 250 159 233 242 153 242 249 158 233 242 153 241 250 159 243 251 160 232 240 152 233 242 153 243 251 160 231 239 154 232 240 152 243 251 160 231 239 154 243 251 160 245 252 161 244 253 162 231 239 154 245 252 161 231 239 154 244 253 162 247 254 161 246 255 160 231 239 154 247 254 161 230 237 152 231 239 154 246 255 160 246 255 160 248 256 159 229 238 153 230 237 152 246 255 160 229 238 153 229 238 153 248 256 159 250 257 158 249 258 157 229 238 153 250 257 158 228 236 151 229 238 153 249 258 157 249 258 157 251 259 155 227 235 150 228 236 151 249 258 157 227 235 150 226 234 149 227 235 150 251 259 155 251 259 155 252 260 156 224 233 148 226 234 149 251 259 155 224 233 148 225 232 147 224 233 148 252 260 156 223 231 146 225 232 147 254 261 163 253 262 164 223 231 146 254 261 163 253 262 164 254 261 163 248 256 159 246 255 160 253 262 164 248 256 159 248 256 159 254 261 163 250 257 158 252 260 156 250 257 158 254 261 163 225 232 147 252 260 156 254 261 163 255 263 137 195 203 113 121 128 112 191 198 114 195 203 113 255 263 137 191 198 114 255 263 137 257 264 136 256 265 135 191 198 114 257 264 136 204 213 130 191 198 114 256 265 135 204 213 130 256 265 135 259 266 142 258 267 143 204 213 130 259 266 142 256 265 135 257 264 136 260 268 141 259 266 142 256 265 135 260 268 141 255 263 137 123 130 139 124 131 140 257 264 136 255 263 137 124 131 140 255 263 137 122 129 138 123 130 139 121 128 112 122 129 138 255 263 137 124 131 140 261 269 165 257 264 136 257 264 136 261 269 165 262 270 166 260 268 141 257 264 136 262 270 166 259 266 142 260 268 141 263 271 167 259 266 142 263 271 167 264 272 168 258 267 143 259 266 142 264 272 168 265 273 145 258 267 143 264 272 168 258 267 143 265 273 145 266 274 144 204 213 130 258 267 143 266 274 144 204 213 130 266 274 144 267 275 146 205 212 129 204 213 130 267 275 146 205 212 129 267 275 146 268 276 147 237 245 148 205 212 129 268 276 147 237 245 148 268 276 147 238 247 156 238 247 156 268 276 147 269 277 163 242 249 158 238 247 156 269 277 163 269 277 163 241 250 159 242 249 158 241 250 159 269 277 163 270 278 164 243 251 160 241 250 159 270 278 164 269 277 163 268 276 147 267 275 146 270 278 164 269 277 163 267 275 146 271 279 169 270 278 164 267 275 146 267 275 146 266 274 144 271 279 169 272 280 170 271 279 169 266 274 144 272 280 170 266 274 144 265 273 145 273 281 171 272 280 170 265 273 145 265 273 145 264 272 168 274 282 172 273 281 171 265 273 145 274 282 172 275 283 173 273 281 171 274 282 172 273 281 171 275 283 173 276 284 174 272 280 170 273 281 171 276 284 174 276 284 174 277 285 175 271 279 169 272 280 170 276 284 174 271 279 169 271 279 169 277 285 175 278 286 176 245 252 161 271 279 169 278 286 176 271 279 169 245 252 161 243 251 160 270 278 164 271 279 169 243 251 160 245 252 161 278 286 176 279 287 177 244 253 162 245 252 161 279 287 177 277 285 175 138 144 179 166 174 178 278 286 176 277 285 175 166 174 178 138 144 179 277 285 175 280 288 180 136 143 181 138 144 179 280 288 180 124 131 140 136 143 181 280 288 180 280 288 180 261 269 165 124 131 140 261 269 165 280 288 180 281 289 182 262 270 166 261 269 165 281 289 182 262 270 166 282 290 183 263 271 167 260 268 141 262 270 166 263 271 167 262 270 166 281 289 182 282 290 183 280 288 180 276 284 174 275 283 173 281 289 182 280 288 180 275 283 173 277 285 175 276 284 174 280 288 180 275 283 173 274 282 172 282 290 183 281 289 182 275 283 173 282 290 183 217 224 136 219 292 141 284 291 166 283 293 165 217 224 136 284 291 166 283 293 165 105 112 140 217 224 136 283 293 165 285 294 180 105 112 140 283 293 165 284 296 166 286 295 182 285 294 180 283 293 165 286 295 182 284 296 166 219 226 141 288 297 167 287 298 183 284 296 166 288 297 167 219 226 141 218 227 142 288 297 167 218 227 142 220 228 143 289 299 168 288 297 167 218 227 142 289 299 168 220 228 143 221 230 145 289 299 168 221 230 145 290 301 171 291 300 172 289 299 168 221 230 145 291 300 172 221 230 145 222 229 144 292 302 170 290 301 171 221 230 145 292 302 170 293 303 169 292 302 170 222 229 144 222 229 144 223 231 146 293 303 169 253 262 164 293 303 169 223 231 146 293 303 169 253 262 164 246 255 160 247 254 161 293 303 169 246 255 160 247 254 161 244 253 162 279 287 177 294 304 176 247 254 161 279 287 177 294 304 176 295 305 175 293 303 169 247 254 161 294 304 176 293 303 169 293 303 169 295 305 175 296 306 174 292 302 170 293 303 169 296 306 174 296 306 174 295 305 175 285 294 180 285 294 180 295 305 175 149 155 179 147 154 181 285 294 180 149 155 179 147 154 181 105 112 140 285 294 180 286 295 182 284 296 166 287 298 183 287 298 183 291 300 172 297 307 173 286 295 182 287 298 183 297 307 173 290 301 171 297 307 173 291 300 172 290 301 171 292 302 170 296 306 174 297 307 173 290 301 171 296 306 174 297 307 173 296 306 174 285 294 180 286 295 182 297 307 173 285 294 180 295 305 175 294 304 176 168 176 178 149 155 179 295 305 175 168 176 178 168 176 178 294 304 176 279 287 177 167 175 184 168 176 178 279 287 177 279 287 177 278 286 176 166 174 178 167 175 184 279 287 177 166 174 178 97 104 125 298 308 185 198 205 121 202 210 123 97 104 125 198 205 121 298 308 185 203 211 127 198 205 121 95 102 125 200 208 123 300 309 121 299 310 185 95 102 125 300 309 121 200 208 123 173 184 105 300 309 121 300 309 121 173 184 105 176 181 102 301 311 120 300 309 121 176 181 102 176 181 102 178 185 106 301 311 120 178 185 106 63 70 109 172 180 119 301 311 120 178 185 106 172 180 119 171 179 128 301 311 120 172 180 119 301 311 120 171 179 128 302 312 127 300 309 121 301 311 120 302 312 127 302 312 127 299 310 185 300 309 121 304 315 188 305 314 187 306 313 186 303 316 189 304 315 188 306 313 186 305 314 187 304 315 188 307 317 190 308 318 188 305 314 187 307 317 190 308 318 188 309 319 189 306 313 186 305 314 187 308 318 188 306 313 186 303 316 189 306 313 186 311 320 191 310 321 192 303 316 189 311 320 191 311 320 191 306 313 186 309 319 189 312 322 192 311 320 191 309 319 189 309 319 189 313 324 194 314 323 193 312 322 192 309 319 189 314 323 193 313 324 194 309 319 189 308 318 188 315 325 195 313 324 194 308 318 188 315 325 195 308 318 188 307 317 190 304 315 188 316 326 195 307 317 190 316 326 195 304 315 188 303 316 189 317 327 194 316 326 195 303 316 189 317 327 194 303 316 189 310 321 192 318 328 193 317 327 194 310 321 192 318 328 193 310 321 192 320 329 196 319 330 197 318 328 193 320 329 196 310 321 192 311 320 191 321 331 198 320 329 196 310 321 192 321 331 198 321 331 198 311 320 191 312 322 192 322 332 196 321 331 198 312 322 192 312 322 192 314 323 193 323 333 197 322 332 196 312 322 192 323 333 197 325 334 199 321 331 198 322 332 196 324 335 200 325 334 199 322 332 196 322 332 196 323 333 197 326 336 201 324 335 200 322 332 196 326 336 201 320 329 196 321 331 198 325 334 199 319 330 197 320 329 196 325 334 199 325 334 199 327 338 200 328 337 201 319 330 197 325 334 199 328 337 201 330 341 189 331 340 186 332 339 191 329 342 192 330 341 189 332 339 191 332 339 191 331 340 186 334 343 189 333 344 192 332 339 191 334 343 189 331 340 186 335 346 187 336 345 188 334 343 189 331 340 186 336 345 188 331 340 186 330 341 189 337 347 188 335 346 187 331 340 186 337 347 188 335 346 187 337 347 188 338 348 190 336 345 188 335 346 187 338 348 190 334 343 189 336 345 188 340 349 195 339 350 194 334 343 189 340 349 195 339 350 194 341 351 193 333 344 192 334 343 189 339 350 194 333 344 192 341 351 193 342 353 197 343 352 196 333 344 192 341 351 193 343 352 196 333 344 192 343 352 196 344 354 198 332 339 191 333 344 192 344 354 198 344 354 198 345 355 196 329 342 192 332 339 191 344 354 198 329 342 192 329 342 192 345 355 196 347 356 197 346 357 193 329 342 192 347 356 197 346 357 193 348 358 194 330 341 189 329 342 192 346 357 193 330 341 189 348 358 194 349 359 195 337 347 188 330 341 189 348 358 194 337 347 188 337 347 188 349 359 195 338 348 190 340 349 195 336 345 188 338 348 190 345 355 196 344 354 198 350 360 199 347 356 197 345 355 196 350 360 199 350 360 199 351 362 200 352 361 201 347 356 197 350 360 199 352 361 201 350 360 199 344 354 198 343 352 196 353 363 200 350 360 199 343 352 196 343 352 196 342 353 197 354 364 201 353 363 200 343 352 196 354 364 201 355 367 204 356 366 203 357 365 202 356 366 203 355 367 204 359 368 205 358 369 206 356 366 203 359 368 205 359 368 205 355 367 204 361 370 203 360 371 206 359 368 205 361 370 203 355 367 204 357 365 202 361 370 203 362 372 207 361 370 203 357 365 202 357 365 202 363 374 209 364 373 208 362 372 207 357 365 202 364 373 208 365 375 210 363 374 209 357 365 202 357 365 202 366 376 207 365 375 210 366 376 207 357 365 202 356 366 203 367 377 211 366 376 207 356 366 203 366 376 207 367 377 211 368 378 209 365 375 210 366 376 207 368 378 209 365 375 210 368 378 209 156 164 212 157 163 213 365 375 210 156 164 212 157 163 213 158 165 212 363 374 209 365 375 210 157 163 213 363 374 209 363 374 209 158 165 212 159 166 214 369 379 215 363 374 209 159 166 214 159 166 214 156 164 212 368 378 209 369 379 215 159 166 214 368 378 209 367 377 211 370 380 216 369 379 215 368 378 209 367 377 211 369 379 215 370 380 216 364 373 208 363 374 209 369 379 215 370 380 216 363 374 209 361 370 203 362 372 207 364 373 208 361 370 203 364 373 208 371 381 217 360 371 206 361 370 203 371 381 217 371 381 217 364 373 208 370 380 216 370 380 216 372 383 219 373 382 218 371 381 217 370 380 216 373 382 218 370 380 216 374 385 220 375 384 218 372 383 219 370 380 216 375 384 218 374 385 220 370 380 216 367 377 211 374 385 220 367 377 211 356 366 203 358 369 206 374 385 220 356 366 203 358 369 206 359 368 205 377 386 221 376 387 222 358 369 206 377 386 221 358 369 206 376 387 222 375 384 218 374 385 220 358 369 206 375 384 218 372 383 219 375 384 218 379 388 223 378 389 224 372 383 219 379 388 223 379 388 223 375 384 218 376 387 222 380 390 225 379 388 223 376 387 222 376 387 222 377 386 221 381 391 226 380 390 225 376 387 222 381 391 226 377 386 221 359 368 205 360 371 206 382 392 222 377 386 221 360 371 206 360 371 206 371 381 217 373 382 218 382 392 222 360 371 206 373 382 218 372 383 219 378 389 224 383 393 223 373 382 218 372 383 219 383 393 223 383 393 223 384 394 225 382 392 222 373 382 218 383 393 223 382 392 222 382 392 222 384 394 225 381 391 226 377 386 221 382 392 222 381 391 226 381 391 226 385 396 228 386 395 227 380 390 225 381 391 226 386 395 227 381 391 226 384 394 225 387 397 227 385 396 228 381 391 226 387 397 227 383 393 223 387 397 227 384 394 225 387 397 227 383 393 223 388 398 229 378 389 224 388 398 229 383 393 223 378 389 224 379 388 223 388 398 229 386 395 227 388 398 229 379 388 223 380 390 225 386 395 227 379 388 223 385 396 228 388 398 229 386 395 227 385 396 228 387 397 227 388 398 229 390 401 203 391 400 206 392 399 205 389 402 204 390 401 203 392 399 205 392 399 205 393 404 206 394 403 203 389 402 204 392 399 205 394 403 203 395 405 202 389 402 204 394 403 203 390 401 203 389 402 204 395 405 202 395 405 202 396 406 207 390 401 203 396 406 207 395 405 202 397 407 210 398 408 209 397 407 210 395 405 202 395 405 202 399 410 207 400 409 208 398 408 209 395 405 202 400 409 208 394 403 203 399 410 207 395 405 202 399 410 207 394 403 203 400 409 208 398 408 209 400 409 208 402 411 216 401 412 215 398 408 209 402 411 216 398 408 209 401 412 215 140 147 214 133 140 212 398 408 209 140 147 214 398 408 209 133 140 212 132 138 213 397 407 210 398 408 209 132 138 213 397 407 210 132 138 213 131 139 212 403 413 209 397 407 210 131 139 212 403 413 209 131 139 212 140 147 214 401 412 215 403 413 209 140 147 214 401 412 215 402 411 216 404 414 211 403 413 209 401 412 215 404 414 211 400 409 208 405 415 217 402 411 216 405 415 217 400 409 208 394 403 203 393 404 206 405 415 217 394 403 203 393 404 206 392 399 205 407 416 221 406 417 222 393 404 206 407 416 221 393 404 206 406 417 222 408 418 218 405 415 217 393 404 206 408 418 218 408 418 218 409 419 219 402 411 216 405 415 217 408 418 218 402 411 216 402 411 216 409 419 219 411 420 218 410 421 220 402 411 216 411 420 218 402 411 216 410 421 220 404 414 211 410 421 220 391 400 206 390 401 203 404 414 211 410 421 220 390 401 203 396 406 207 404 414 211 390 401 203 396 406 207 397 407 210 403 413 209 404 414 211 396 406 207 403 413 209 407 416 221 392 399 205 391 400 206 412 422 222 407 416 221 391 400 206 391 400 206 410 421 220 411 420 218 412 422 222 391 400 206 411 420 218 409 419 219 413 424 224 414 423 223 411 420 218 409 419 219 414 423 223 409 419 219 408 418 218 415 425 223 413 424 224 409 419 219 415 425 223 415 425 223 408 418 218 406 417 222 416 426 225 415 425 223 406 417 222 406 417 222 407 416 221 417 427 226 416 426 225 406 417 222 417 427 226 417 427 226 407 416 221 412 422 222 418 428 225 417 427 226 412 422 222 412 422 222 411 420 218 414 423 223 418 428 225 412 422 222 414 423 223 414 423 223 413 424 224 419 429 229 419 429 229 413 424 224 415 425 223 415 425 223 420 430 227 419 429 229 420 430 227 415 425 223 416 426 225 420 430 227 416 426 225 417 427 226 421 431 228 420 430 227 417 427 226 417 427 226 418 428 225 422 432 227 421 431 228 417 427 226 422 432 227 422 432 227 418 428 225 414 423 223 419 429 229 422 432 227 414 423 223 419 429 229 421 431 228 422 432 227 420 430 227 421 431 228 419 429 229 423 435 232 424 434 231 425 433 230 423 435 232 425 433 230 426 436 233 423 435 232 426 436 233 427 437 230 423 435 232 427 437 230 428 438 231 427 437 230 429 440 235 430 439 234 428 438 231 427 437 230 430 439 234 429 440 235 431 442 237 432 441 236 430 439 234 429 440 235 432 441 236 431 442 237 433 443 239 326 336 238 432 441 236 431 442 237 326 336 238 433 443 239 324 335 240 326 336 238 434 444 241 432 441 236 326 336 238 324 335 240 433 443 239 436 445 242 435 446 243 324 335 240 436 445 242 324 335 240 435 446 243 437 447 244 325 334 245 324 335 240 437 447 244 437 447 244 438 448 243 327 338 240 325 334 245 437 447 244 327 338 240 438 448 243 439 450 242 440 449 239 327 338 240 438 448 243 440 449 239 328 337 238 327 338 240 440 449 239 441 451 241 328 337 238 440 449 239 440 449 239 442 453 237 443 452 236 441 451 241 440 449 239 443 452 236 442 453 237 444 455 235 445 454 234 443 452 236 442 453 237 445 454 234 444 455 235 425 433 230 424 434 231 445 454 234 444 455 235 424 434 231 444 455 235 446 456 246 426 436 233 425 433 230 444 455 235 426 436 233 426 436 233 446 456 246 429 440 235 427 437 230 426 436 233 429 440 235 446 456 246 447 457 247 431 442 237 429 440 235 446 456 246 431 442 237 447 457 247 448 458 248 433 443 239 431 442 237 447 457 247 433 443 239 433 443 239 448 458 248 449 459 249 436 445 242 433 443 239 449 459 249 435 446 243 436 445 242 13 14 250 11 12 251 435 446 243 13 14 250 11 12 251 12 10 252 437 447 244 435 446 243 11 12 251 437 447 244 12 10 252 27 32 251 438 448 243 437 447 244 12 10 252 438 448 243 27 32 251 24 28 250 439 450 242 438 448 243 27 32 251 439 450 242 24 28 250 15 16 253 449 459 249 439 450 242 24 28 250 449 459 249 439 450 242 449 459 249 448 458 248 440 449 239 439 450 242 448 458 248 440 449 239 448 458 248 447 457 247 442 453 237 440 449 239 447 457 247 442 453 237 447 457 247 446 456 246 444 455 235 442 453 237 446 456 246 436 445 242 449 459 249 15 16 253 13 14 250 436 445 242 15 16 253 450 462 202 451 461 204 452 460 203 453 463 203 451 461 204 450 462 202 453 463 203 454 465 206 455 464 205 451 461 204 453 463 203 455 464 205 455 464 205 456 466 206 452 460 203 451 461 204 455 464 205 452 460 203 452 460 203 456 466 206 458 467 217 457 468 208 452 460 203 458 467 217 459 469 207 452 460 203 457 468 208 452 460 203 459 469 207 450 462 202 450 462 202 459 469 207 457 468 208 460 470 209 450 462 202 457 468 208 460 470 209 457 468 208 462 471 216 461 472 215 460 470 209 462 471 216 460 470 209 461 472 215 242 249 214 240 248 212 460 470 209 242 249 214 460 470 209 240 248 212 239 246 213 463 473 210 460 470 209 239 246 213 460 470 209 463 473 210 450 462 202 464 474 207 450 462 202 463 473 210 450 462 202 464 474 207 453 463 203 464 474 207 465 475 211 453 463 203 464 474 207 463 473 210 466 476 209 465 475 211 464 474 207 466 476 209 463 473 210 239 246 213 238 247 212 466 476 209 463 473 210 238 247 212 466 476 209 238 247 212 242 249 214 461 472 215 466 476 209 242 249 214 461 472 215 462 471 216 465 475 211 466 476 209 461 472 215 465 475 211 462 471 216 467 477 220 465 475 211 467 477 220 454 465 206 453 463 203 465 475 211 467 477 220 453 463 203 454 465 206 468 479 222 469 478 221 455 464 205 454 465 206 469 478 221 454 465 206 467 477 220 470 480 218 468 479 222 454 465 206 470 480 218 468 479 222 470 480 218 472 481 223 471 482 225 468 479 222 472 481 223 468 479 222 471 482 225 473 483 226 469 478 221 468 479 222 473 483 226 469 478 221 474 484 222 456 466 206 455 464 205 469 478 221 456 466 206 456 466 206 474 484 222 475 485 218 458 467 217 456 466 206 475 485 218 457 468 208 458 467 217 462 471 216 462 471 216 458 467 217 475 485 218 476 486 219 462 471 216 475 485 218 462 471 216 476 486 219 470 480 218 467 477 220 462 471 216 470 480 218 476 486 219 477 487 224 472 481 223 470 480 218 476 486 219 472 481 223 476 486 219 475 485 218 478 488 223 477 487 224 476 486 219 478 488 223 474 484 222 479 489 225 478 488 223 475 485 218 474 484 222 478 488 223 474 484 222 469 478 221 473 483 226 479 489 225 474 484 222 473 483 226 473 483 226 471 482 225 481 490 227 480 491 228 473 483 226 481 490 227 473 483 226 480 491 228 482 492 227 479 489 225 473 483 226 482 492 227 482 492 227 478 488 223 479 489 225 483 493 229 477 487 224 478 488 223 478 488 223 482 492 227 483 493 229 482 492 227 480 491 228 483 493 229 483 493 229 480 491 228 481 490 227 481 490 227 471 482 225 472 481 223 472 481 223 477 487 224 483 493 229 483 493 229 481 490 227 472 481 223 484 496 204 485 495 202 486 494 203 486 494 203 487 498 206 488 497 205 484 496 204 486 494 203 488 497 205 488 497 205 489 500 206 490 499 203 484 496 204 488 497 205 490 499 203 484 496 204 490 499 203 485 495 202 491 501 207 485 495 202 490 499 203 485 495 202 491 501 207 492 502 210 492 502 210 493 503 209 485 495 202 485 495 202 493 503 209 495 504 208 494 505 207 485 495 202 495 504 208 494 505 207 486 494 203 485 495 202 486 494 203 494 505 207 495 504 208 493 503 209 496 507 215 497 506 216 495 504 208 493 503 209 497 506 216 493 503 209 249 258 212 250 257 214 496 507 215 493 503 209 250 257 214 493 503 209 492 502 210 251 259 213 249 258 212 493 503 209 251 259 213 492 502 210 498 508 209 252 260 212 251 259 213 492 502 210 252 260 212 498 508 209 496 507 215 250 257 214 252 260 212 498 508 209 250 257 214 496 507 215 498 508 209 499 509 211 497 506 216 496 507 215 499 509 211 500 510 217 495 504 208 497 506 216 500 510 217 487 498 206 486 494 203 495 504 208 500 510 217 486 494 203 487 498 206 501 512 222 502 511 221 488 497 205 487 498 206 502 511 221 487 498 206 500 510 217 503 513 218 501 512 222 487 498 206 503 513 218 501 512 222 503 513 218 505 514 223 504 515 225 501 512 222 505 514 223 501 512 222 504 515 225 506 516 226 502 511 221 501 512 222 506 516 226 502 511 221 507 517 222 489 500 206 488 497 205 502 511 221 489 500 206 489 500 206 507 517 222 509 518 218 508 519 220 489 500 206 509 518 218 508 519 220 499 509 211 490 499 203 489 500 206 508 519 220 490 499 203 499 509 211 491 501 207 490 499 203 491 501 207 499 509 211 498 508 209 492 502 210 491 501 207 498 508 209 508 519 220 497 506 216 499 509 211 497 506 216 508 519 220 509 518 218 510 520 219 497 506 216 509 518 218 497 506 216 510 520 219 503 513 218 500 510 217 497 506 216 503 513 218 510 520 219 511 521 224 505 514 223 503 513 218 510 520 219 505 514 223 510 520 219 509 518 218 512 522 223 511 521 224 510 520 219 512 522 223 507 517 222 513 523 225 512 522 223 509 518 218 507 517 222 512 522 223 507 517 222 502 511 221 506 516 226 513 523 225 507 517 222 506 516 226 506 516 226 504 515 225 515 524 227 514 525 228 506 516 226 515 524 227 506 516 226 514 525 228 516 526 227 513 523 225 506 516 226 516 526 227 513 523 225 516 526 227 512 522 223 511 521 224 512 522 223 517 527 229 516 526 227 517 527 229 512 522 223 514 525 228 517 527 229 516 526 227 514 525 228 515 524 227 517 527 229 505 514 223 515 524 227 504 515 225 511 521 224 517 527 229 505 514 223 515 524 227 505 514 223 517 527 229 519 530 203 520 529 206 521 528 205 518 531 204 519 530 203 521 528 205 521 528 205 522 533 206 523 532 203 518 531 204 521 528 205 523 532 203 518 531 204 523 532 203 524 534 202 518 531 204 524 534 202 519 530 203 525 535 207 519 530 203 524 534 202 524 534 202 526 537 209 527 536 208 525 535 207 524 534 202 527 536 208 528 538 210 526 537 209 524 534 202 524 534 202 529 539 207 528 538 210 529 539 207 524 534 202 523 532 203 530 540 211 529 539 207 523 532 203 529 539 207 530 540 211 531 541 209 528 538 210 529 539 207 531 541 209 528 538 210 531 541 209 287 298 212 288 297 213 528 538 210 287 298 212 531 541 209 532 542 215 291 300 214 287 298 212 531 541 209 291 300 214 291 300 214 532 542 215 526 537 209 289 299 212 291 300 214 526 537 209 526 537 209 528 538 210 288 297 213 289 299 212 526 537 209 288 297 213 523 532 203 522 533 206 533 543 220 530 540 211 523 532 203 533 543 220 522 533 206 534 545 222 535 544 218 533 543 220 522 533 206 535 544 218 522 533 206 521 528 205 536 546 221 534 545 222 522 533 206 536 546 221 536 546 221 521 528 205 520 529 206 537 547 222 536 546 221 520 529 206 520 529 206 538 549 217 539 548 218 537 547 222 520 529 206 539 548 218 538 549 217 520 529 206 519 530 203 527 536 208 538 549 217 519 530 203 519 530 203 525 535 207 527 536 208 526 537 209 532 542 215 540 550 216 527 536 208 526 537 209 540 550 216 538 549 217 527 536 208 540 550 216 540 550 216 541 551 219 539 548 218 538 549 217 540 550 216 539 548 218 540 550 216 533 543 220 535 544 218 541 551 219 540 550 216 535 544 218 533 543 220 540 550 216 530 540 211 530 540 211 540 550 216 532 542 215 531 541 209 530 540 211 532 542 215 537 547 222 542 553 225 543 552 226 536 546 221 537 547 222 543 552 226 543 552 226 544 554 225 534 545 222 536 546 221 543 552 226 534 545 222 534 545 222 544 554 225 545 555 223 535 544 218 534 545 222 545 555 223 541 551 219 535 544 218 545 555 223 546 556 224 541 551 219 545 555 223 544 554 225 547 557 227 545 555 223 547 557 227 544 554 225 543 552 226 548 558 228 547 557 227 543 552 226 543 552 226 542 553 225 549 559 227 548 558 228 543 552 226 549 559 227 550 560 223 549 559 227 542 553 225 550 560 223 542 553 225 537 547 222 539 548 218 550 560 223 537 547 222 541 551 219 546 556 224 550 560 223 539 548 218 541 551 219 550 560 223 546 556 224 551 561 229 550 560 223 546 556 224 545 555 223 551 561 229 547 557 227 551 561 229 545 555 223 548 558 228 551 561 229 547 557 227 548 558 228 549 559 227 551 561 229 549 559 227 550 560 223 551 561 229 553 564 205 554 563 204 555 562 203 552 565 206 553 564 205 555 562 203 555 562 203 554 563 204 556 566 202 556 566 202 554 563 204 557 567 203 557 567 203 554 563 204 553 564 205 558 568 206 557 567 203 553 564 205 558 568 206 553 564 205 560 569 221 559 570 222 558 568 206 560 569 221 560 569 221 553 564 205 552 565 206 561 571 222 560 569 221 552 565 206 552 565 206 562 573 220 563 572 218 561 571 222 552 565 206 563 572 218 562 573 220 552 565 206 555 562 203 564 574 211 562 573 220 555 562 203 565 575 207 564 574 211 555 562 203 556 566 202 565 575 207 555 562 203 565 575 207 556 566 202 566 576 210 565 575 207 566 576 210 567 577 209 564 574 211 565 575 207 567 577 209 566 576 210 263 271 213 282 290 212 567 577 209 566 576 210 282 290 212 567 577 209 282 290 212 274 282 214 568 578 215 567 577 209 274 282 214 274 282 214 264 272 212 569 579 209 568 578 215 274 282 214 569 579 209 569 579 209 264 272 212 263 271 213 566 576 210 569 579 209 263 271 213 569 579 209 566 576 210 556 566 202 556 566 202 570 581 207 571 580 208 569 579 209 556 566 202 571 580 208 557 567 203 570 581 207 556 566 202 570 581 207 557 567 203 571 580 208 569 579 209 571 580 208 572 582 216 568 578 215 569 579 209 572 582 216 568 578 215 572 582 216 564 574 211 567 577 209 568 578 215 564 574 211 572 582 216 562 573 220 564 574 211 572 582 216 573 583 219 563 572 218 562 573 220 572 582 216 563 572 218 572 582 216 574 585 217 575 584 218 573 583 219 572 582 216 575 584 218 571 580 208 574 585 217 572 582 216 574 585 217 571 580 208 557 567 203 558 568 206 574 585 217 557 567 203 558 568 206 559 570 222 575 584 218 574 585 217 558 568 206 575 584 218 573 583 219 575 584 218 577 586 223 576 587 224 573 583 219 577 586 223 577 586 223 575 584 218 559 570 222 578 588 225 577 586 223 559 570 222 559 570 222 560 569 221 579 589 226 578 588 225 559 570 222 579 589 226 579 589 226 560 569 221 561 571 222 580 590 225 579 589 226 561 571 222 561 571 222 563 572 218 581 591 223 580 590 225 561 571 222 581 591 223 573 583 219 576 587 224 581 591 223 563 572 218 573 583 219 581 591 223 582 592 227 580 590 225 581 591 223 582 592 227 583 593 228 579 589 226 580 590 225 582 592 227 579 589 226 579 589 226 583 593 228 584 594 227 578 588 225 579 589 226 584 594 227 584 594 227 577 586 223 578 588 225 577 586 223 584 594 227 585 595 229 585 595 229 576 587 224 577 586 223 581 591 223 576 587 224 585 595 229 585 595 229 582 592 227 581 591 223 585 595 229 583 593 228 582 592 227 584 594 227 583 593 228 585 595 229 586 598 230 587 597 232 588 596 233 589 599 231 587 597 232 586 598 230 589 599 231 586 598 230 591 600 235 590 601 234 589 599 231 591 600 235 591 600 235 586 598 230 588 596 233 592 602 246 591 600 235 588 596 233 588 596 233 593 604 230 594 603 235 592 602 246 588 596 233 594 603 235 588 596 233 587 597 232 593 604 230 593 604 230 587 597 232 595 605 231 593 604 230 595 605 231 596 606 234 594 603 235 593 604 230 596 606 234 592 602 246 594 603 235 598 607 237 597 608 247 592 602 246 598 607 237 592 602 246 597 608 247 599 609 237 591 600 235 592 602 246 599 609 237 599 609 237 600 610 236 590 601 234 591 600 235 599 609 237 590 601 234 599 609 237 601 611 239 354 364 238 600 610 236 599 609 237 354 364 238 601 611 239 353 363 240 354 364 238 602 612 241 600 610 236 354 364 238 601 611 239 603 614 242 604 613 243 353 363 240 601 611 239 604 613 243 353 363 240 604 613 243 605 615 244 350 360 245 353 363 240 605 615 244 605 615 244 606 616 243 351 362 240 350 360 245 605 615 244 351 362 240 351 362 240 606 616 243 608 617 242 607 618 239 351 362 240 608 617 242 351 362 240 607 618 239 609 619 236 352 361 238 351 362 240 609 619 236 607 618 239 598 607 237 609 619 236 610 620 241 352 361 238 609 619 236 609 619 236 598 607 237 594 603 235 596 606 234 609 619 236 594 603 235 597 608 247 598 607 237 607 618 239 611 621 248 597 608 247 607 618 239 597 608 247 611 621 248 601 611 239 599 609 237 597 608 247 601 611 239 611 621 248 612 622 249 603 614 242 601 611 239 611 621 248 603 614 242 612 622 249 55 62 253 53 60 250 603 614 242 612 622 249 53 60 250 603 614 242 53 60 250 52 59 251 604 613 243 603 614 242 52 59 251 604 613 243 52 59 251 48 55 252 605 615 244 604 613 243 48 55 252 605 615 244 48 55 252 47 53 251 606 616 243 605 615 244 47 53 251 606 616 243 47 53 251 46 54 250 608 617 242 606 616 243 46 54 250 607 618 239 608 617 242 612 622 249 611 621 248 607 618 239 612 622 249 608 617 242 46 54 250 55 62 253 612 622 249 608 617 242 55 62 253 613 625 256 614 624 255 615 623 254 616 626 257 613 625 256 615 623 254 617 627 258 616 626 257 615 623 254 618 628 259 617 627 258 615 623 254 619 629 260 618 628 259 615 623 254 620 630 261 619 629 260 615 623 254 621 631 262 620 630 261 615 623 254 614 624 255 621 631 262 615 623 254 623 632 265 616 626 264 617 627 263 622 633 266 623 632 265 617 627 263 622 633 266 617 627 263 618 628 267 624 634 268 622 633 266 618 628 267 624 634 268 625 636 270 626 635 269 622 633 266 624 634 268 626 635 269 622 633 266 626 635 269 627 637 271 623 632 265 622 633 266 627 637 271 623 632 265 627 637 271 629 638 272 628 639 273 623 632 265 629 638 272 628 639 273 613 625 274 616 626 264 623 632 265 628 639 273 616 626 264 613 625 274 628 639 273 630 640 275 614 624 276 613 625 274 630 640 275 614 624 276 630 640 275 631 641 277 621 631 278 614 624 276 631 641 277 621 631 278 631 641 277 632 642 279 620 630 280 621 631 278 632 642 279 620 630 280 632 642 279 633 643 281 619 629 282 620 630 280 633 643 281 619 629 282 633 643 281 624 634 283 618 628 284 619 629 282 624 634 283 633 643 281 634 644 286 625 636 285 624 634 283 633 643 281 625 636 285 636 645 287 625 636 285 634 644 286 635 646 288 636 645 287 634 644 286 635 646 288 298 308 290 97 104 289 636 645 287 635 646 288 97 104 289 635 646 288 637 647 292 203 211 291 298 308 290 635 646 288 203 211 291 638 648 293 637 647 292 635 646 288 634 644 286 638 648 293 635 646 288 634 644 286 633 643 281 632 642 279 638 648 293 634 644 286 632 642 279 638 648 293 632 642 279 631 641 277 639 649 294 638 648 293 631 641 277 639 649 294 631 641 277 630 640 275 640 650 295 639 649 294 630 640 275 640 650 295 630 640 275 628 639 273 629 638 272 640 650 295 628 639 273 642 651 296 629 638 272 627 637 271 641 652 297 642 651 296 627 637 271 626 635 269 643 653 298 641 652 297 627 637 271 626 635 269 641 652 297 625 636 270 636 645 299 643 653 298 626 635 269 625 636 270 643 653 298 97 104 300 643 653 298 636 645 299 97 104 300 91 98 301 643 653 298 91 98 301 641 652 297 643 653 298 91 98 301 90 97 302 642 651 296 641 652 297 91 98 301 642 651 296 640 650 295 629 638 272 642 651 296 644 654 303 640 650 295 642 651 296 639 649 294 640 650 295 644 654 303 645 655 304 639 649 294 644 654 303 637 647 292 638 648 293 639 649 294 645 655 304 637 647 292 639 649 294 645 655 304 88 95 305 203 211 291 637 647 292 645 655 304 203 211 291 645 655 304 644 654 303 89 96 306 88 95 305 645 655 304 89 96 306 89 96 306 644 654 303 642 651 296 90 97 302 89 96 306 642 651 296 646 658 255 647 657 256 648 656 254 647 657 256 649 659 257 648 656 254 649 659 257 650 660 258 648 656 254 650 660 258 651 661 259 648 656 254 651 661 259 652 662 260 648 656 254 652 662 260 653 663 261 648 656 254 653 663 261 654 664 262 648 656 254 654 664 262 646 658 255 648 656 254 649 659 264 647 657 274 656 665 273 655 666 265 649 659 264 656 665 273 655 666 265 657 667 266 650 660 263 649 659 264 655 666 265 650 660 263 657 667 266 658 668 268 651 661 267 650 660 263 657 667 266 651 661 267 658 668 268 657 667 266 660 669 269 659 670 270 658 668 268 660 669 269 657 667 266 655 666 265 661 671 271 660 669 269 657 667 266 661 671 271 655 666 265 656 665 273 662 672 272 661 671 271 655 666 265 662 672 272 647 657 274 646 658 276 663 673 275 656 665 273 647 657 274 663 673 275 646 658 276 654 664 278 664 674 277 663 673 275 646 658 276 664 674 277 654 664 278 653 663 280 665 675 279 664 674 277 654 664 278 665 675 279 653 663 280 652 662 282 666 676 281 665 675 279 653 663 280 666 676 281 652 662 282 651 661 284 658 668 283 666 676 281 652 662 282 658 668 283 666 676 281 658 668 283 659 670 285 667 677 286 666 676 281 659 670 285 668 679 287 669 678 288 667 677 286 659 670 285 668 679 287 667 677 286 669 678 288 668 679 287 95 102 289 299 310 290 669 678 288 95 102 289 669 678 288 299 310 290 302 312 291 670 680 292 669 678 288 302 312 291 671 681 293 667 677 286 669 678 288 670 680 292 671 681 293 669 678 288 667 677 286 671 681 293 665 675 279 666 676 281 667 677 286 665 675 279 671 681 293 672 682 294 664 674 277 665 675 279 671 681 293 664 674 277 672 682 294 673 683 295 663 673 275 664 674 277 672 682 294 663 673 275 673 683 295 662 672 272 656 665 273 663 673 275 673 683 295 656 665 273 674 685 296 675 684 297 661 671 271 662 672 272 674 685 296 661 671 271 660 669 269 661 671 271 675 684 297 676 686 298 660 669 269 675 684 297 659 670 270 660 669 269 676 686 298 668 679 299 659 670 270 676 686 298 676 686 298 95 102 300 668 679 299 94 101 301 95 102 300 676 686 298 675 684 297 94 101 301 676 686 298 94 101 301 675 684 297 674 685 296 169 177 302 94 101 301 674 685 296 673 683 295 677 687 303 674 685 296 662 672 272 673 683 295 674 685 296 672 682 294 678 688 304 677 687 303 673 683 295 672 682 294 677 687 303 670 680 292 678 688 304 672 682 294 671 681 293 670 680 292 672 682 294 678 688 304 670 680 292 302 312 291 171 179 305 678 688 304 302 312 291 678 688 304 171 179 305 170 178 306 677 687 303 678 688 304 170 178 306 170 178 306 169 177 302 674 685 296 677 687 303 170 178 306 674 685 296 680 689 309 681 689 308 682 689 307 679 689 310 680 689 309 682 689 307</p>
                </triangles>
            </mesh>
        </geometry>
    </library_geometries>
    <library_visual_scenes>
        <visual_scene id="ID8">
            <node id="ID9" name="Vadon">
                <translate sid="translate">0 0 -0</translate>
                <rotate sid="rotateY">0 1 0 -0</rotate>
                <rotate sid="rotateX">1 0 0 0</rotate>
                <rotate sid="rotateZ">0 0 1 -0</rotate>
                <scale sid="scale">1 1 1</scale>
                <instance_geometry url="#ID10">
                    <bind_material>
                        <technique_common>
                            <instance_material symbol="Material1" target="#ID3">
                                <bind_vertex_input semantic="UVSET0" input_semantic="TEXCOORD" input_set="0"/>
                            </instance_material>
                        </technique_common>
                    </bind_material>
                </instance_geometry>
            </node>
        </visual_scene>
    </library_visual_scenes>
    <scene>
        <instance_visual_scene url="#ID8"/>
    </scene>
</COLLADA>
