#  ==========================================================================
#  
#  Wavefront OBJ format exported by Red-i Productions' "Riptide Pro"
#     (a commercial plugin for Cinema 4D PC & Mac, R9.6 or later)
#  
#  Red-i Productions
#  http://skinprops.com
#  
#  ==========================================================================
mtllib CRAB.mtl
v -22.3249 51.1128 7.0824
v -20.8851 49.8067 4.5004
v -21.7936 47.7528 5.7681
v -22.9377 49.6317 7.9311
v -20.9991 46.7102 7.6964
v -22.3733 48.8927 9.2269
v -26.6328 52.1688 10.6979
v -25.9649 50.9246 12.5516
v -25.7898 54.2912 9.8246
v -23.5386 55.0927 11.136
v -20.7653 51.8914 7.8947
v -23.4986 55.4667 11.3053
v -26.2667 54.6879 9.7706
v -23.5205 55.1792 13.8524
v -23.182 54.3779 12.9801
v -25.8564 54.4051 15.7159
v -24.387 52.9354 14.2374
v -22.4776 53.9762 12.8638
v -23.3641 51.7504 14.0011
v -19.9349 51.2534 9.2017
v -18.632 50.9069 5.6335
v -17.4714 50.0542 7.566
v -20.4554 49.6118 10.1559
v -26.5117 52.5408 12.7885
v -28.1514 54.1875 13.7189
v -18.307 47.7482 9.0385
v -26.5659 53.2918 11.0802
v -27.8599 54.4838 11.3704
v 20.2015 50.3716 6.3305
v 22.5854 49.9327 4.2909
v 24.3113 51.2193 5.9577
v 22.6818 51.4716 7.4872
v 19.1168 52.8538 5.7656
v 22.0747 53.3412 7.3769
v 19.8977 54.2331 3.995
v 22.6483 54.4582 6.2686
v 21.8916 53.6534 2.2167
v 23.9494 54.0966 4.8994
v 26.1333 55.9445 9.4093
v 28.1389 55.7287 7.5574
v 25.4616 54.3763 11.0024
v 26.5397 52.0085 11.2104
v 28.7832 51.8502 9.0761
v 29.4319 53.3438 9.841
v 27.5586 53.1552 11.6593
v 26.093 54.7093 10.9733
v 26.3541 55.2944 11.7985
v 26.0672 56.1814 9.5689
v 28.5806 56.09 7.4775
v 24.6342 52.4181 4.9565
v 29.1437 53.6053 7.6489
v 29.1721 54.4758 8.3608
v 30.3721 55.6866 8.7519
v 30.9334 55.0877 11.0184
v 23.0098 51.4644 2.6473
v 28.8613 54.618 13.2267
v -15.8461 49.8724 7.3679
v -17.3107 50.9626 4.2937
v -20.5839 49.3105 2.6193
v -22.2025 46.5203 4.8196
v -21.0655 44.9312 7.7585
v -17.2202 46.2692 10.1727
v -14.8312 53.5051 2.2608
v -21.1137 49.3954 -1.3531
v -23.9836 43.8326 4.3296
v -22.5185 40.0762 9.1963
v -25.5159 39.5509 5.1377
v -17.9975 40.3849 12.3809
v -8.6402 46.7622 12.3244
v -8.8868 40.254 15.3195
v 1.5492 40.4256 16.2733
v 1.2721 47.5704 12.8802
v 11.1195 48.0619 11.4216
v 11.9259 41.1524 14.9338
v 20.8983 42.0639 11.6601
v 19.4592 49.1638 7.7365
v 25.3383 42.142 8.3094
v 23.0824 48.4854 4.7806
v 17.2505 52.5575 5.3459
v 9.6018 53.7203 6.5751
v 0.5468 53.8639 7.5821
v 7.983 57.2207 2.2063
v -0.0096 56.9813 2.8154
v 14.9869 55.9168 0.3572
v 18.1259 53.9202 2.1843
v 21.3308 52.8315 0.0172
v 21.3386 52.8289 -4.0633
v 15.5494 55.8508 -3.7352
v 10.0248 58.4879 -2.9749
v 9.5819 58.523 -1.4501
v 7.4547 58.5769 -0.1271
v 4.5169 58.8126 -0.217
v -7.9496 55.9321 3.2234
v -8.4221 52.2626 7.7257
v -4.9936 58.0381 0.2324
v -5.0039 58.1168 -2.8604
v -0.4574 58.2229 -2.6256
v 3.9129 58.8089 -3.2466
v -25.2707 45.805 -0.6217
v -32.0708 41.7294 0.4757
v -25.9325 38.9724 0.2933
v -25.0605 35.4692 5.7982
v -22.3961 35.4287 9.5258
v -31.7488 34.5557 1.0112
v -25.5911 31.874 0.628
v -23.5298 29.4213 0.1046
v -22.8197 30.6164 5.5594
v -18.4843 34.5014 12.2243
v -14.2066 34.8927 14.5027
v -7.4455 32.0785 15.8369
v 1.2708 32.4441 17.1085
v 9.7409 32.1821 16.289
v 16.5328 35.0649 15.3191
v 20.929 34.7177 13.2739
v 25.408 36.7735 9.5033
v 28.2186 37.7691 4.8109
v 28.2583 41.8721 4.1411
v 25.7565 47.8556 1.1542
v 23.5871 50.2833 1.8196
v 26.0753 49.9579 -3.8996
v 33.5235 47.0347 -3.7118
v 28.5925 41.326 -0.7172
v 34.8306 37.4297 -0.2227
v 28.8887 33.4067 0.6024
v 26.7911 30.0819 0.988
v 25.8358 31.2551 6.4135
v 22.5675 31.6718 9.9534
v 21.8906 29.4534 12.671
v 20.4143 32.1046 14.5873
v 17.3135 32.6012 16.3563
v 12.6324 30.5529 16.6648
v 12.4831 29.9962 13.6083
v 16.3462 31.6798 13.7805
v 18.5009 28.5272 11.7372
v 20.6417 26.7326 11.0771
v 20.8226 27.317 7.5876
v 21.8984 26.3172 1.3423
v 15.4665 24.552 8.449
v 15.5925 23.296 1.8946
v 16.8242 24.9252 11.2946
v 14.547 27.0136 11.5671
v 12.719 24.9739 13.0299
v 9.6061 23.6424 9.8289
v 7.9887 27.1274 14.8793
v 10.9979 27.1589 15.685
v -19.9119 31.4398 8.8214
v -17.998 27.1033 6.5539
v -18.7289 26.0882 0.2635
v -12.6663 24.3922 7.7027
v -12.4276 23.138 1.1506
v -14.1947 24.7498 10.471
v -18.0097 26.5361 10.0383
v -19.363 29.2502 11.5589
v -18.0094 31.9109 13.5548
v -15.0108 32.4249 15.4958
v -10.3361 30.4026 16.068
v -10.0106 29.4002 13.3264
v -13.6068 31.6009 13.0308
v -15.8266 28.8625 10.5056
v -12.1192 26.8176 10.8268
v -10.1876 24.8216 12.435
v -6.8777 23.5418 9.3957
v -5.5683 27.0416 14.5249
v -8.6276 27.0162 15.1828
v 1.2036 26.7475 15.0401
v 1.3653 23.0492 9.7372
v 8.7554 21.687 2.1951
v 1.5793 21.0215 2.1089
v -5.5984 21.6061 1.814
v -7.7762 57.3238 0.8943
v -10.0838 56.9142 0.0134
v -10.8055 56.7984 -1.3967
v -15.8884 53.3081 -1.7282
v -7.6761 50.8623 -11.727
v -8.053 44.142 -16.6262
v -16.0818 42.524 -13.4159
v -15.1502 48.6215 -9.7279
v -21.899 40.7368 -9.2697
v -20.3999 47.3972 -6.159
v -24.4428 42.2167 -4.4268
v -25.7736 37.5934 -3.8466
v -22.3506 35.2406 -11.1811
v -15.8012 36.3667 -17.5012
v -6.7984 37.6774 -20.9543
v 0.5305 44.8166 -18.3078
v 1.9147 38.2152 -22.1229
v 10.5922 38.1863 -20.6364
v 9.209 45.108 -17.1157
v 19.4997 37.6357 -16.8815
v 17.5288 44.405 -14.3689
v 23.7234 43.29 -10.5629
v 25.5175 36.5872 -11.2037
v 14.9821 50.8308 -11.378
v 20.3525 50.6932 -8.7606
v 25.3584 46.2447 -7.6062
v 27.4746 41.9001 -7.2459
v 13.7655 54.9377 -7.6861
v 7.5424 51.8633 -12.4224
v 7.4202 55.814 -8.5134
v -0.134 52.1498 -12.3655
v -4.7015 55.3182 -7.8733
v -0.6117 55.841 -8.0601
v 3.4994 55.9814 -8.3968
v 9.1575 58.5014 -4.7406
v 23.4763 30.8515 -13.1609
v 17.7442 32.0522 -18.1075
v 15.7891 34.3788 -19.6312
v 11.5953 34.3918 -21.5559
v 8.403 31.737 -22.3268
v 2.1929 32.5033 -23.436
v -4.0597 31.6645 -22.66
v -7.3158 34.2865 -22.0542
v -11.6053 34.229 -20.3513
v -13.614 31.8808 -18.9342
v -19.5887 30.6035 -14.3058
v -22.4619 32.4288 -11.2797
v -25.2225 34.7644 -4.8706
v -23.8657 31.9234 -6.9892
v -22.9339 30.4577 -10.9854
v -23.804 30.05 -7.7229
v -21.0733 29.4436 -13.0888
v -18.8057 26.9704 -13.389
v -17.0617 27.3703 -14.3754
v -13.1572 28.3114 -17.7094
v -12.8767 31.1119 -20.4699
v -12.5757 28.3168 -19.6204
v -11.0727 32.3631 -21.486
v -7.6744 32.3766 -22.7649
v -5.4618 30.7252 -23.0162
v -5.3948 27.7176 -21.5562
v -3.6102 27.5437 -20.8229
v 2.1527 26.8277 -20.7186
v 7.9002 27.6138 -20.5093
v 9.6961 27.8141 -21.124
v 9.8168 30.8131 -22.5985
v 12.0022 32.4765 -22.2504
v 15.3295 32.4875 -20.8073
v 17.0863 31.2518 -19.6963
v 15.5558 30.2627 -18.1333
v 12.7356 32.4635 -19.9351
v 9.6348 29.9456 -20.2257
v 11.3744 26.7792 -19.6917
v 12.4116 28.0081 -17.9926
v 10.6707 26.106 -17.8431
v 2.0045 23.0698 -14.3395
v 9.1925 23.5174 -14.0461
v -6.5013 26.0047 -18.3066
v -5.1935 23.4363 -14.4281
v -7.137 26.6662 -20.2141
v -5.4 29.8321 -20.6613
v -8.2784 27.8727 -18.5779
v -8.5198 32.3523 -20.4767
v -11.4229 30.1337 -18.8295
v -10.4863 26.5103 -17.3621
v -10.6759 27.1091 -19.4022
v 28.1477 37.0682 -5.8596
v 26.1682 32.7028 -9.987
v 27.3508 32.2066 -5.6291
v 24.8961 29.7161 -11.8721
v 26.6436 30.7324 -9.6737
v 27.3546 30.3138 -6.3739
v 25.9211 29.8806 -3.7896
v 26.5736 29.1459 -4.7224
v 24.8874 31.0803 -8.0617
v 22.295 29.3235 -10.9622
v 22.6632 27.2285 -12.2969
v 20.9903 27.5922 -13.3652
v 17.2604 28.4799 -16.9027
v 16.7604 28.4609 -18.8442
v 14.8619 27.2448 -18.7112
v 14.5943 26.6524 -16.6925
v 15.7941 24.8464 -13.4835
v 20.0001 26.1822 -10.899
v 21.9316 26.1139 -10.5225
v 21.1764 27.222 -7.7092
v 22.2969 25.704 -7.124
v 20.3581 25.574 -6.509
v 15.7396 23.4172 -6.3583
v 8.9473 21.6641 -6.3031
v 1.8062 21.0639 -6.4451
v 23.3402 26.6806 -3.1893
v 24.2991 26.274 -4.9262
v 23.7982 28.7346 -4.7264
v -22.5103 29.6139 -5.0743
v -23.0978 28.8957 -6.0286
v -19.9313 26.4416 -4.3355
v -20.7968 26.0396 -6.104
v -20.3157 28.5224 -5.8872
v -21.2567 30.8312 -9.293
v -18.5309 29.054 -12.0522
v -18.1551 25.8696 -11.5747
v -17.5576 26.9886 -8.7298
v -16.1875 25.9725 -11.8588
v -11.8303 24.6907 -14.217
v -5.3387 21.5836 -6.6825
v -12.1378 23.26 -7.0985
v -16.7684 25.3638 -7.4929
v -18.685 25.4734 -8.1966
v 7.0897 58.631 -4.9717
v -8.3841 57.4104 -3.9318
v -8.5278 54.5241 -7.4953
v -14.495 52.652 -5.882
v -10.3159 56.9443 -3.3004
v -38.1504 91.3064 9.6876
v -35.0614 94.6291 16.5456
v -31.6573 97.953 15.1146
v -33.7796 94.9037 4.8868
v -29.4635 95.2359 22.4032
v -27.2629 95.4608 14.9147
v -27.0775 92.6208 7.1094
v -39.8807 81.8307 5.7828
v -34.4414 82.5952 -0.8154
v -26.3758 82.9031 2.5652
v -24.6831 87.6404 11.7601
v -23.6178 82.5526 9.9478
v -26.1082 90.6183 15.9142
v -34.7912 89.81 17.6185
v -37.3331 86.5955 14.8657
v -38.9384 81.2272 13.9065
v -38.6145 77.44 16.0865
v -38.701 72.6436 9.4669
v -32.6722 69.6885 3.2572
v -24.979 73.6378 5.8291
v -22.6701 78.4276 11.9959
v -23.1938 67.7871 12.4427
v -30.2584 64.2885 9.2687
v -22.1325 75.1639 15.4942
v -36.4622 65.2228 14.3386
v -37.1548 74.4256 19.0319
v 21.5417 85.6075 8.7474
v 20.2609 92.7759 16.6562
v 25.9458 97.4045 15.5043
v 29.0685 88.7159 5.544
v 35.1396 87.0419 11.3789
v 31.5115 93.5865 18.5924
v 24.1356 95.7876 26.1117
v 28.3761 93.1998 26.1841
v 20.4934 92.477 24.9556
v 23.3944 90.0978 31.8035
v 32.3856 87.2631 21.5798
v 29.4077 88.4388 25.3377
v 35.1648 83.2589 18.6544
v 35.9971 78.9947 19.2246
v 36.6238 77.1853 11.2769
v 30.9391 75.2457 4.3804
v 22.7952 75.7785 8.2262
v 19.6821 81.8422 15.4256
v 19.9834 77.1606 15.742
v 19.6296 85.9892 19.0456
v 20.6708 87.488 24.0281
v 30.6023 66.7809 7.8249
v 23.2264 67.6153 11.7944
v 20.8007 73.4294 16.6903
v 36.8318 67.8033 12.786
v 35.8395 75.3779 19.6492
v -22.5226 34.905 25.0515
v -15.5744 31.9872 27.4561
v -17.9375 34.1822 19.5051
v -16.6443 28.2243 31.7306
v -26.0773 31.9048 29.8583
v -29.3256 26.8508 21.4954
v -26.0306 31.0324 19.2957
v -21.6468 32.6924 17.7991
v -19.6284 27.0877 17.0847
v -21.7572 27.1216 16.519
v -17.2027 30.4434 19.038
v -15.4742 33.578 22.8458
v -13.0871 27.6864 22.7132
v -14.0686 27.4652 21.1264
v -16.3776 23.6609 19.3089
v -16.6901 21.0414 20.2563
v -23.5564 21.4325 16.7867
v -19.1305 17.1066 23.2371
v -25.5565 16.8868 19.8349
v -12.2899 22.2779 25.4212
v -14.3369 18.3613 28.5229
v -17.9654 22.5781 34.7883
v -28.3277 25.5901 33.4939
v -21.063 11.2032 26.4123
v -16.8732 12.5373 31.0162
v -20.2173 14.0924 35.4383
v -28.058 14.9187 34.5944
v -31.1783 21.1141 24.1579
v -26.7251 11.1586 23.4632
v -30.3754 12.9145 27.3055
v -25.0177 4.6768 32.2065
v -21.3228 5.6878 32.7111
v -26.4017 5.136 28.6284
v -21.5767 -0.0146 28.5599
v 24.1327 34.9132 26.3978
v 16.9164 32.272 28.2745
v 17.5059 28.5623 32.6865
v 27.1801 31.8952 31.5308
v 30.9237 26.5721 23.5507
v 27.9632 30.8142 21.0165
v 19.9921 34.2298 20.5074
v 17.246 33.7729 23.6448
v 19.1809 30.5054 20.0675
v 21.63 27.0376 18.3536
v 23.775 32.5861 19.1372
v 23.799 26.9902 17.9666
v 18.0781 23.7621 20.3316
v 18.24 21.1542 21.38
v 15.7736 27.672 21.9157
v 14.6779 27.9609 23.4184
v 25.3752 21.2519 18.4788
v 32.3567 20.8323 26.4545
v 28.9103 25.5842 35.4469
v 26.9643 16.7051 21.7586
v 20.294 17.2021 24.6181
v 13.4789 22.6363 26.1446
v 15.1319 18.7177 29.4707
v 18.3804 22.9382 35.939
v 21.7655 11.1855 28.0928
v 17.2619 12.7653 32.3061
v 27.638 10.9194 25.6026
v 31.02 12.7277 29.6649
v 28.1878 14.9774 36.6958
v 20.2829 14.3986 36.9202
v 21.9279 -0.0115 30.7846
v 26.821 5.0702 31.0034
v 25.1613 4.7872 34.4811
v 21.4565 5.8701 34.6573
v -26.5822 85.9051 32.7156
v -31.1504 79.4582 30.6163
v -29.3026 78.1646 34.3047
v -24.7672 77.678 35.9888
v -21.9608 79.0492 32.4656
v -22.6521 80.3698 28.3986
v -20.7696 72.0484 27.6844
v -21.5565 77.0104 23.4888
v -21.5302 68.5491 22.1054
v -22.0708 75.1053 19.7307
v -23.9258 64.6481 16.8376
v -23.0256 75.8256 15.0087
v -23.9342 59.5215 11.7082
v -23.986 58.9863 15.4317
v -28.199 59.1638 9.1523
v -31.8073 58.4073 11.7432
v -31.4081 58.0405 16.0588
v -34.1939 63.947 18.4856
v -36.3728 74.9068 18.9743
v -33.3635 67.3415 23.9915
v -34.9331 74.3218 23.2571
v -31.5477 71.1854 30.5855
v -34.0377 76.1086 26.7152
v -24.9938 68.2206 31.864
v -26.6073 64.1599 25.925
v -28.4808 62.3874 19.5236
v -27.524 58.229 18.4111
v 13.4465 33.2788 -23.808
v 15.7837 34.5353 -30.536
v 8.717 31.3086 -30.8232
v 21.209 30.6194 -26.3164
v 23.9125 26.9638 -29.9086
v 17.6978 31.9755 -36.412
v 8.4566 27.593 -35.2173
v 8.2639 26.8875 -26.1849
v 7.0209 21.5055 -28.4575
v 9.9141 32.3611 -26.1679
v 10.0966 27.6991 -24.7057
v 13.334 23.8083 -23.4293
v 13.5344 20.0816 -24.5996
v 13.3665 30.6438 -23.4443
v 17.5119 32.2684 -23.5948
v 18.1177 26.1024 -22.1669
v 16.4737 27.2178 -22.1582
v 20.3303 20.5844 -23.5368
v 25.2828 21.5032 -33.2668
v 19.0056 25.9733 -40.9309
v 21.5139 16.9374 -27.338
v 23.8687 13.3939 -36.4322
v 21.8477 10.6488 -31.828
v 19.072 15.5501 -42.3493
v 9.2046 22.1254 -38.8197
v 8.1263 17.2302 -32.2594
v 14.4069 16.4744 -28.6678
v 15.6642 9.9259 -33.1534
v 10.1534 10.9502 -36.204
v 11.5349 13.8487 -40.7198
v 18.3911 5.403 -41.8514
v 20.8231 5.3192 -38.8501
v 14.6396 5.6342 -40.9557
v 17.0831 -0.6659 -38.9178
v -11.6512 34.5563 -31.4285
v -9.3471 33.4084 -24.6696
v -4.637 31.2108 -31.6302
v -4.4285 27.397 -35.9423
v -13.5955 31.9009 -37.2518
v -19.9023 27.132 -30.6552
v -17.1469 30.8206 -27.1371
v -13.4286 32.4685 -24.4436
v -9.2671 30.7872 -24.1231
v -6.0838 27.7682 -25.4316
v -5.8256 32.383 -27.0014
v -4.2639 26.8844 -26.8963
v -9.4361 23.9527 -24.2239
v -9.6466 20.2003 -25.1757
v -12.4756 27.4323 -22.8976
v -14.1366 26.3454 -22.8839
v -3.1038 21.4352 -29.0491
v -5.258 21.8655 -39.4272
v -14.9916 25.824 -41.6427
v -4.271 17.0968 -32.7601
v -7.7173 13.5655 -41.1522
v -6.2723 11.698 -36.0813
v -15.2552 15.1058 -42.9674
v -21.3544 21.6227 -33.8975
v -16.4354 20.8353 -24.139
v -17.6707 17.1263 -27.863
v -10.5696 16.5202 -29.1668
v -11.7765 11.1194 -32.8999
v -18.0015 11.8588 -31.7915
v -20.0683 13.445 -36.8917
v -13.8917 4.6296 -39.3533
v -10.1925 5.4413 -38.5876
v -16.3896 5.3688 -36.4996
v -12.2182 0.0211 -34.5462
v -31.5377 34.4968 -11.3933
v -28.2774 30.8942 -17.4616
v -32.0626 27.246 -19.8164
v -37.6627 32.147 -12.6993
v -35.5188 27.3712 -3.832
v -30.8937 30.8111 -4.4238
v -24.6294 32.9988 -9.8638
v -24.8662 31.9302 -14.0699
v -23.834 26.0965 -13.1386
v -24.265 26.3756 -15.2823
v -24.2105 29.1813 -9.7765
v -26.5872 32.2086 -6.2394
v -25.9429 26.0611 -4.7493
v -24.971 25.903 -6.3519
v -24.7054 22.3639 -9.5939
v -28.4935 20.6967 -3.3571
v -39.3338 22.0523 -4.1906
v -32.5132 17.1858 -4.1732
v -42.4619 26.304 -13.6913
v -35.7659 21.8904 -20.8331
v -25.7998 20.9738 -17.3167
v -29.8069 16.8313 -18.1762
v -25.9194 19.8417 -9.6982
v -30.0055 16.3581 -10.92
v -38.9485 13.775 -19.5099
v -44.2852 15.6965 -14.0026
v -41.6582 13.9474 -6.7293
v -36.3282 11.9521 -5.8667
v -34.1416 11.0203 -11.7725
v -40.1121 5.6824 -9.6841
v -41.3423 5.0522 -13.2923
v -38.7271 5.6387 -16.0754
v -34.0016 11.5609 -18.1321
v -36.7814 0.0223 -12.2695
v 38.9924 26.4905 -2.5647
v 41.5769 31.5724 -11.1396
v 35.5912 34.2364 -9.7918
v 34.6029 30.2437 -3.0349
v 28.5783 33.1038 -8.4335
v 32.2106 31.1671 -16.0833
v 35.797 27.4122 -18.5773
v 39.1725 21.8915 -19.8261
v 46.0149 25.4949 -12.3751
v 42.4709 20.9653 -3.153
v 31.5546 20.2609 -2.5336
v 35.3585 16.5483 -3.4808
v 29.3694 25.8415 -3.6746
v 30.423 32.0043 -4.8305
v 27.8783 29.318 -8.5582
v 28.4261 25.8389 -5.2958
v 28.0492 22.4859 -8.7187
v 27.414 26.4297 -12.0793
v 28.8163 32.2413 -12.6866
v 27.887 26.8063 -14.1974
v 29.0359 19.9004 -8.944
v 32.9144 16.2318 -10.294
v 29.1123 21.4302 -16.4931
v 32.8646 17.0912 -17.5172
v 36.6118 11.048 -11.3584
v 36.6532 11.8768 -17.6879
v 41.8224 13.543 -18.8913
v 47.1932 14.7536 -13.223
v 44.3153 12.8697 -6.0832
v 38.7751 11.463 -5.3861
v 41.598 5.0385 -9.3909
v 42.7956 4.3707 -13.0033
v 40.3536 5.4448 -15.7983
v 37.5214 0.0385 -12.2537
v 29.3143 80.5736 27.2393
v 26.0471 85.2611 21.1406
v 24.8697 81.176 29.1168
v 30.969 79.174 23.4984
v 33.7083 76.1663 23.3861
v 31.9142 72.8731 28.8811
v 25.7822 70.0286 31.5674
v 21.8816 79.7987 25.7487
v 21.024 71.5804 26.6382
v 22.3705 78.134 21.7798
v 21.1125 74.6293 20.9461
v 27.9312 64.8909 24.7429
v 22.0524 68.2632 21.0418
v 34.0044 68.9909 22.3317
v 34.4873 75.4153 21.1453
v 35.1206 65.4888 16.8339
v 35.2927 76.3047 18.1122
v 33.4347 59.4106 13.7545
v 33.4977 60.307 9.4988
v 29.664 60.5909 7.1478
v 25.5711 59.8071 9.8832
v 24.818 64.393 15.6929
v 25.9476 58.9006 13.515
v 21.5111 73.9343 18.3415
v 21.7997 74.9855 14.8088
v 29.8359 62.8998 18.0747
v 29.7355 58.5603 16.2541
v 8.4824 76.3074 0.8614
v 10.7719 75.4975 -1.1254
v 6.9122 77.6257 -3.8413
v 5.272 76.5801 0.3308
v 3.3172 76.0985 -2.1083
v 3.977 75.043 -4.6614
v 6.269 74.134 -6.5123
v 9.2231 74.1978 -6.036
v 11.0829 74.8109 -3.8857
v 2.7441 71.9734 -1.2015
v 5.0826 72.3402 2.0211
v 3.7209 70.8907 -4.4809
v 4.0711 65.4192 -3.7826
v 3.9546 66.132 -1.0802
v 5.7114 66.6005 0.947
v 9.0528 72.0134 2.8792
v 8.7049 66.3376 1.1938
v 12.2193 71.0643 0.4447
v 12.9119 70.3677 -3.1494
v 10.2244 69.9349 -5.9582
v 6.4984 69.9628 -6.7665
v 5.8871 64.8187 -5.6705
v 6.1636 59.7669 -4.4156
v 4.7517 60.141 -3.0546
v 7.7962 59.555 -4.2263
v 8.5584 64.6862 -5.3737
v 10.5154 65.0321 -3.8214
v 10.7038 65.8011 -0.8842
v 5.7763 60.3616 -0.4134
v 7.5324 60.1766 -0.3243
v 4.7237 60.5498 -1.2816
v 8.6365 59.841 -1.5113
v 8.6379 59.6119 -2.9748
v -10.6172 73.9113 4.0618
v -7.6353 74.8718 4.2383
v -9.3996 76.3203 -0.356
v -5.4699 75.3734 1.8463
v -5.4323 75.043 -1.2987
v -7.4793 73.9557 -2.9404
v -10.3735 72.8955 -3.0137
v -12.39 72.7479 -0.807
v -12.5396 73.2177 2.0593
v -4.2749 71.1425 3.3112
v -7.1114 70.47 6.1126
v -4.0291 71.0218 -0.6411
v -6.5472 69.9086 -2.9244
v -6.3868 64.4853 -2.4908
v -4.8592 65.1707 -0.2989
v -5.2057 65.4083 2.3311
v -7.4925 64.7995 4.122
v -11.0076 69.2941 5.7019
v -13.4704 68.5958 3.0254
v -12.7117 68.4318 -0.769
v -10.0413 68.7841 -3.4153
v -8.8569 63.706 -3.0976
v -6.4074 59.3654 -2.8025
v -8.2025 58.7516 -3.3776
v -9.4856 58.2408 -2.4631
v -10.8587 63.2639 -1.4299
v -11.6194 63.3632 0.9117
v -10.2141 64.0665 3.4627
v -7.5281 58.8609 0.9202
v -6.0857 59.3668 0.0345
v -5.6212 59.7549 -1.2115
v -8.9818 58.3398 0.3582
v -9.6324 58.1291 -0.956
v 21.9888 57.0679 -2.1383
v 9.3798 61.9514 -4.4938
v 5.0324 56.2086 6.903
v 17.6448 51.3283 9.2506
# 683 vertices

vt 0.56930 0.90190
vt 0.56930 0.85740
vt 0.54100 0.85750
vt 0.54080 0.90200
vt 0.60040 0.90180
vt 0.60040 0.85730
vt 0.60040 0.95380
vt 0.56930 0.95380
vt 0.54090 0.96630
vt 0.51230 0.90200
vt 0.51230 0.96630
vt 0.54110 0.98360
vt 0.51240 0.98360
vt 0.47880 0.97700
vt 0.47890 0.99430
vt 0.44890 0.97700
vt 0.44880 0.99430
vt 0.44890 0.95380
vt 0.47880 0.95380
vt 0.47880 0.90200
vt 0.51230 0.85760
vt 0.47880 0.85750
vt 0.44890 0.90190
vt 0.42100 0.95380
vt 0.42100 0.97690
vt 0.42100 0.99430
vt 0.44890 0.85740
vt 0.42100 0.90180
vt 0.42100 0.85730
vt 0.56930 0.99430
vt 0.56930 0.97700
vt 0.60040 0.97690
vt 0.60070 0.99430
vt 0.77600 0.87120
vt 0.78750 0.89090
vt 0.81620 0.85870
vt 0.78840 0.85420
vt 0.75720 0.87100
vt 0.74030 0.88950
vt 0.74800 0.85000
vt 0.72490 0.84380
vt 0.75740 0.83230
vt 0.74510 0.81290
vt 0.77770 0.83260
vt 0.79660 0.81080
vt 0.81740 0.92650
vt 0.70560 0.92800
vt 0.68850 0.83220
vt 0.67330 0.76800
vt 0.72710 0.76080
vt 0.79210 0.75320
vt 0.87320 0.74130
vt 0.87780 0.81120
vt 0.98210 0.80240
vt 0.98210 0.73600
vt 0.89010 0.86660
vt 0.98210 0.87470
vt 0.98210 0.94010
vt 0.89770 0.93390
vt 0.78280 0.97140
vt 0.84800 0.99460
vt 0.87380 0.97700
vt 0.90210 0.97350
vt 0.93240 0.97990
vt 0.93550 0.99100
vt 0.98210 0.98670
vt 0.65030 0.88220
vt 0.59110 0.83500
vt 0.61670 0.77030
vt 0.71920 0.70780
vt 0.66800 0.70680
vt 0.57730 0.72560
vt 0.61630 0.66600
vt 0.65990 0.60810
vt 0.70940 0.63940
vt 0.77660 0.69880
vt 0.82450 0.69930
vt 0.89780 0.67250
vt 0.98210 0.66820
vt 0.73950 0.65440
vt 0.79490 0.66170
vt 0.78250 0.64080
vt 0.82630 0.66420
vt 0.86850 0.64780
vt 0.81810 0.64550
vt 0.85530 0.62660
vt 0.81160 0.62860
vt 0.79230 0.61540
vt 0.76480 0.59260
vt 0.72570 0.54130
vt 0.81440 0.49380
vt 0.82720 0.55570
vt 0.83630 0.59300
vt 0.84570 0.61120
vt 0.87750 0.58710
vt 0.91520 0.53700
vt 0.88520 0.61700
vt 0.92350 0.61510
vt 0.98210 0.61490
vt 0.98210 0.53830
vt 0.90720 0.47020
vt 0.98210 0.46360
vt 0.17980 0.87820
vt 0.18780 0.81300
vt 0.10100 0.82080
vt 0.09540 0.88620
vt 0.26370 0.87740
vt 0.28090 0.79580
vt 0.33840 0.82100
vt 0.30230 0.91500
vt 0.37330 0.86970
vt 0.44350 0.83350
vt 0.41170 0.77190
vt 0.36050 0.76820
vt 0.29280 0.72570
vt 0.19260 0.74120
vt 0.10690 0.75480
vt 0.01560 0.75890
vt 0.01560 0.82320
vt 0.23140 0.96240
vt 0.17750 0.93000
vt 0.10110 0.93830
vt 0.01560 0.89390
vt 0.05950 0.94040
vt 0.01560 0.94190
vt 0.04520 0.99050
vt 0.01560 0.99090
vt 0.12440 0.98860
vt 0.17100 0.99120
vt 0.18270 0.69140
vt 0.25870 0.67760
vt 0.15510 0.71410
vt 0.11200 0.71730
vt 0.07450 0.69490
vt 0.01560 0.69960
vt 0.29890 0.68510
vt 0.34390 0.65930
vt 0.38360 0.70730
vt 0.46000 0.71890
vt 0.41070 0.64480
vt 0.38320 0.59110
vt 0.32150 0.64670
vt 0.30200 0.66340
vt 0.27120 0.65820
vt 0.23090 0.65040
vt 0.25690 0.64250
vt 0.18380 0.65730
vt 0.16140 0.66400
vt 0.16550 0.68270
vt 0.14420 0.69860
vt 0.11670 0.70110
vt 0.09730 0.68850
vt 0.07360 0.65480
vt 0.09970 0.65950
vt 0.01560 0.64660
vt 0.12970 0.68900
vt 0.14530 0.67460
vt 0.11260 0.67700
vt 0.13240 0.66240
vt 0.11910 0.64780
vt 0.10990 0.63320
vt 0.09500 0.60020
vt 0.01560 0.59380
vt 0.14340 0.65060
vt 0.15170 0.63620
vt 0.34370 0.61130
vt 0.32120 0.61910
vt 0.30290 0.64350
vt 0.28070 0.64310
vt 0.16730 0.61010
vt 0.22260 0.62140
vt 0.25560 0.62080
vt 0.27910 0.61920
vt 0.26690 0.60130
vt 0.24300 0.57800
vt 0.17720 0.54060
vt 0.09020 0.52650
vt 0.01560 0.52140
vt 0.09050 0.46090
vt 0.19250 0.47350
vt 0.29950 0.56850
vt 0.30590 0.51490
vt 0.29460 0.59580
vt 0.30260 0.61970
vt 0.01560 0.45520
vt 0.08780 0.98840
vt 0.42610 0.57490
vt 0.48040 0.70040
vt 0.52960 0.67750
vt 0.50570 0.59520
vt 0.56820 0.73880
vt 0.49730 0.43200
vt 0.55860 0.49340
vt 0.61040 0.55320
vt 0.58260 0.60650
vt 0.58640 0.65240
vt 0.65020 0.45810
vt 0.65980 0.53800
vt 0.61890 0.37400
vt 0.73580 0.39860
vt 0.74520 0.46530
vt 0.70440 0.54580
vt 0.25690 0.42780
vt 0.19750 0.36390
vt 0.14690 0.43370
vt 0.07670 0.37110
vt 0.15980 0.32020
vt 0.24310 0.38160
vt 0.25670 0.32450
vt 0.29120 0.33170
vt 0.28560 0.38250
vt 0.25650 0.32440
vt 0.37610 0.37050
vt 0.34690 0.41140
vt 0.42470 0.33720
vt 0.30710 0.28660
vt 0.29950 0.24300
vt 0.24680 0.26710
vt 0.21500 0.21430
vt 0.27500 0.19400
vt 0.24690 0.26700
vt 0.03100 0.29000
vt 0.13350 0.25420
vt 0.18370 0.15070
vt 0.23840 0.12530
vt 0.12190 0.16780
vt 0.03570 0.16780
vt 0.14470 0.08490
vt 0.09820 0.07030
vt 0.18160 0.02980
vt 0.88630 0.40810
vt 0.84920 0.38140
vt 0.81370 0.45070
vt 0.92140 0.44290
vt 0.85530 0.33720
vt 0.92180 0.33170
vt 0.83530 0.29520
vt 0.89180 0.26390
vt 0.78080 0.25980
vt 0.87740 0.19000
vt 0.82240 0.16510
vt 0.80500 0.27070
vt 0.90510 0.11350
vt 0.85980 0.08750
vt 0.81600 0.05920
vt 0.77630 0.10870
vt 0.98860 0.33450
vt 0.96610 0.24510
vt 0.93380 0.18160
vt 0.94500 0.12800
vt 0.92770 0.06210
vt 0.88750 0.04110
vt 0.85450 0.01710
vt 0.96320 0.07830
vt 0.75840 0.34510
vt 0.72010 0.33210
vt 0.74220 0.30770
vt 0.77550 0.30770
vt 0.79620 0.32850
vt 0.79740 0.35930
vt 0.77890 0.38280
vt 0.74480 0.38370
vt 0.72130 0.36460
vt 0.73800 0.25010
vt 0.73800 0.21660
vt 0.69310 0.21660
vt 0.69310 0.25010
vt 0.73800 0.28560
vt 0.69310 0.28560
vt 0.63680 0.25010
vt 0.63680 0.28560
vt 0.63680 0.21660
vt 0.63680 0.18330
vt 0.69310 0.18330
vt 0.73800 0.18330
vt 0.69310 0.14930
vt 0.73800 0.14940
vt 0.69310 0.11760
vt 0.73800 0.11760
vt 0.69310 0.08620
vt 0.73800 0.08620
vt 0.69310 0.05620
vt 0.73800 0.05620
vt 0.69310 0.02650
vt 0.73800 0.02650
vt 0.63680 0.02670
vt 0.63680 0.05620
vt 0.57260 0.02680
vt 0.57260 0.05630
vt 0.55190 0.02670
vt 0.55190 0.05620
vt 0.55190 0.08620
vt 0.57260 0.08620
vt 0.63680 0.08620
vt 0.63680 0.11760
vt 0.63680 0.14930
vt 0.57250 0.18330
vt 0.57250 0.21660
vt 0.57250 0.25010
vt 0.57260 0.28560
vt 0.55190 0.28560
vt 0.55180 0.21670
vt 0.55180 0.18330
vt 0.57250 0.14930
vt 0.57250 0.11760
vt 0.55180 0.11760
vt 0.55180 0.14940
vt 0.45690 0.74210
vt 0.45610 0.84600
vt 0.56140 0.84590
vt 0.56160 0.74210
# 311 texture coordinates

usemtl Vadon
f 1/4 2/3 3/2 4/1
f 4/1 3/2 5/6 6/5
f 7/8 4/1 6/5 8/7
f 4/1 7/8 9/9 1/4
f 1/4 9/9 10/11 11/10
f 12/13 10/11 9/9 13/12
f 10/11 12/13 14/15 15/14
f 15/14 14/15 16/17 17/16
f 18/19 15/14 17/16 19/18
f 18/19 10/11 15/14
f 11/10 10/11 18/19 20/20
f 2/3 1/4 11/10 21/21
f 21/21 11/10 20/20 22/22
f 20/20 18/19 19/18 23/23
f 19/18 17/16 24/25 8/24
f 25/26 24/25 17/16 16/17
f 22/22 20/20 23/23 26/27
f 23/23 19/18 8/24 6/28
f 26/27 23/23 6/28 5/29
f 13/12 9/9 27/31 28/30
f 9/9 7/8 27/31
f 27/31 7/8 8/7 24/32
f 28/30 27/31 24/32 25/33
f 29/27 30/29 31/28 32/23
f 33/22 29/27 32/23 34/20
f 35/21 33/22 34/20 36/10
f 37/3 35/21 36/10 38/4
f 38/4 36/10 39/11 40/9
f 41/19 39/11 36/10 34/20
f 42/18 41/19 34/20 32/23
f 43/24 42/18 32/23 31/28
f 42/18 43/24 44/25 45/16
f 41/19 42/18 45/16 46/14
f 39/11 41/19 46/14
f 39/11 46/14 47/15 48/13
f 40/9 39/11 48/13 49/12
f 50/1 38/4 40/9 51/8
f 51/8 40/9 52/31
f 52/31 40/9 49/12 53/30
f 44/32 52/31 53/30 54/33
f 52/31 44/32 43/7 51/8
f 51/8 43/7 31/5 50/1
f 50/1 31/5 30/6 55/2
f 38/4 50/1 55/2 37/3
f 56/17 47/15 46/14 45/16
f 54/26 56/17 45/16 44/25
f 22/37 57/36 58/35 21/34
f 21/34 58/35 59/39 2/38
f 2/38 59/39 60/41 3/40
f 3/40 60/41 61/43 5/42
f 5/42 61/43 62/45 26/44
f 26/44 62/45 57/36 22/37
f 63/46 58/35 57/36
f 59/39 58/35 63/46
f 59/39 63/46 64/47
f 59/39 64/47 65/48
f 65/48 60/41 59/39
f 61/43 60/41 65/48
f 66/50 61/43 65/48 67/49
f 62/45 61/43 66/50 68/51
f 69/53 62/45 68/51 70/52
f 69/53 70/52 71/55 72/54
f 73/53 72/54 71/55 74/52
f 73/53 74/52 75/51 76/45
f 76/45 75/51 77/50 78/43
f 76/45 78/43 30/42 29/44
f 79/36 76/45 29/44 33/37
f 76/45 79/36 80/56 73/53
f 72/54 73/53 80/56 81/57
f 81/57 80/56 82/59 83/58
f 84/46 82/59 80/56 79/36
f 85/35 84/46 79/36
f 85/35 86/39 84/46
f 84/46 86/39 87/47
f 87/47 88/60 84/46
f 84/46 88/60 89/61
f 89/61 90/62 84/46
f 84/46 90/62 82/59
f 91/63 82/59 90/62
f 82/59 91/63 92/64
f 92/64 83/58 82/59
f 81/57 83/58 93/59 94/56
f 83/58 95/64 93/59
f 96/65 95/64 83/58
f 83/58 97/66 96/65
f 83/58 98/65 97/66
f 98/65 83/58 92/64
f 99/67 65/48 64/47
f 100/68 65/48 99/67
f 100/68 101/69 65/48
f 67/49 65/48 101/69
f 66/50 67/49 102/71 103/70
f 67/49 101/69 102/71
f 104/72 102/71 101/69
f 104/72 105/73 102/71
f 105/73 106/74 102/71
f 107/75 102/71 106/74
f 107/75 103/70 102/71
f 68/51 66/50 103/70 108/76
f 108/76 109/77 68/51
f 68/51 109/77 70/52
f 110/78 70/52 109/77
f 71/55 70/52 110/78 111/79
f 71/55 111/79 112/78 74/52
f 74/52 112/78 113/77
f 113/77 75/51 74/52
f 113/77 114/76 75/51
f 75/51 114/76 115/70 77/50
f 77/50 115/70 116/71 117/49
f 77/50 117/49 118/48 78/43
f 119/41 78/43 118/48
f 119/41 118/48 86/39
f 87/47 86/39 118/48
f 118/48 120/67 87/47
f 118/48 121/68 120/67
f 122/69 121/68 118/48
f 118/48 117/49 122/69
f 122/69 117/49 116/71
f 116/71 123/72 122/69
f 124/73 123/72 116/71
f 125/74 124/73 116/71
f 116/71 126/75 125/74
f 115/70 126/75 116/71
f 126/75 115/70 127/80
f 127/80 115/70 114/76
f 128/82 127/80 114/76 129/81
f 130/83 129/81 114/76 113/77
f 130/83 113/77 112/78 131/84
f 130/83 131/84 132/86 133/85
f 130/83 133/85 129/81
f 128/82 129/81 133/85 134/87
f 128/82 134/87 135/88
f 128/82 135/88 136/89 127/80
f 127/80 136/89 126/75
f 125/74 126/75 136/89 137/90
f 137/90 136/89 138/92 139/91
f 140/93 138/92 136/89 135/88
f 140/93 135/88 134/87 141/94
f 140/93 141/94 142/95
f 138/92 140/93 142/95 143/96
f 144/98 143/96 142/95 145/97
f 112/78 144/98 145/97 131/84
f 145/97 132/86 131/84
f 141/94 132/86 145/97 142/95
f 103/70 146/80 108/76
f 103/70 107/75 146/80
f 147/89 146/80 107/75
f 147/89 107/75 106/74 148/90
f 149/92 147/89 148/90 150/91
f 147/89 149/92 151/93 152/88
f 147/89 152/88 153/82 146/80
f 108/76 146/80 153/82 154/81
f 108/76 154/81 155/83 109/77
f 110/78 109/77 155/83 156/84
f 157/86 156/84 155/83 158/85
f 158/85 155/83 154/81
f 158/85 154/81 153/82 159/87
f 159/87 153/82 152/88
f 159/87 152/88 151/93 160/94
f 160/94 151/93 161/95
f 161/95 151/93 149/92 162/96
f 161/95 162/96 163/98 164/97
f 164/97 163/98 110/78 156/84
f 157/86 164/97 156/84
f 164/97 157/86 160/94 161/95
f 112/78 111/79 165/99 144/98
f 165/99 111/79 110/78 163/98
f 165/99 163/98 162/96 166/100
f 165/99 166/100 143/96 144/98
f 139/91 138/92 143/96 167/101
f 168/102 167/101 143/96 166/100
f 168/102 166/100 162/96 169/101
f 150/91 169/101 162/96 149/92
f 170/63 93/59 95/64
f 93/59 170/63 171/62
f 171/62 63/46 93/59
f 171/62 172/61 63/46
f 173/60 63/46 172/61
f 173/60 64/47 63/46
f 94/56 93/59 63/46 57/36
f 72/54 81/57 94/56 69/53
f 62/45 69/53 94/56 57/36
f 86/39 85/35 35/34 37/38
f 119/41 86/39 37/38 55/40
f 78/43 119/41 55/40 30/42
f 33/37 35/34 85/35 79/36
f 174/106 175/105 176/104 177/103
f 177/103 176/104 178/108 179/107
f 180/109 179/107 178/108
f 179/107 180/109 64/110
f 99/111 64/110 180/109
f 100/112 99/111 180/109
f 100/112 180/109 101/113
f 181/114 101/113 180/109
f 180/109 178/108 181/114
f 182/115 181/114 178/108
f 183/116 182/115 178/108 176/104
f 183/116 176/104 175/105 184/117
f 184/117 175/105 185/119 186/118
f 187/117 186/118 185/119 188/105
f 189/116 187/117 188/105 190/104
f 189/116 190/104 191/108 192/115
f 191/108 190/104 193/103 194/107
f 194/107 195/109 191/108
f 191/108 195/109 196/114
f 122/113 196/114 195/109
f 195/109 121/112 122/113
f 120/111 121/112 195/109
f 87/110 120/111 195/109
f 195/109 194/107 87/110
f 87/110 194/107 197/121 88/120
f 194/107 193/103 197/121
f 197/121 193/103 198/106 199/122
f 198/106 193/103 190/104 188/105
f 200/123 198/106 188/105 185/119
f 200/123 185/119 175/105 174/106
f 174/106 201/124 200/123
f 202/125 200/123 201/124
f 97/127 202/125 201/124 96/126
f 203/124 202/125 97/127 98/126
f 200/123 202/125 203/124
f 203/124 198/106 200/123
f 198/106 203/124 199/122
f 197/121 199/122 204/128
f 197/121 204/128 89/129
f 89/129 88/120 197/121
f 196/114 192/115 191/108
f 189/116 192/115 205/131 206/130
f 189/116 206/130 207/132
f 187/117 189/116 207/132
f 207/132 208/133 187/117
f 208/133 209/134 187/117
f 186/118 187/117 209/134 210/135
f 186/118 210/135 211/134 184/117
f 211/134 212/133 184/117
f 212/133 213/132 184/117
f 183/116 184/117 213/132
f 214/130 183/116 213/132
f 183/116 214/130 215/131 182/115
f 182/115 215/131 216/136
f 217/138 182/115 216/136 218/137
f 181/114 182/115 217/138
f 181/114 217/138 101/113
f 104/139 101/113 217/138
f 104/139 217/138 105/140
f 105/140 217/138 218/137 106/141
f 218/137 216/136 219/143 220/142
f 221/144 219/143 216/136 215/131
f 222/146 221/144 215/131 223/145
f 223/145 215/131 214/130 224/147
f 224/147 214/130 225/149 226/148
f 227/150 225/149 214/130 213/132
f 228/151 227/150 213/132 212/133
f 229/152 228/151 212/133 211/134
f 230/154 229/152 211/134 231/153
f 231/153 211/134 210/135 232/155
f 233/153 232/155 210/135 209/134
f 234/154 233/153 209/134 235/152
f 235/152 209/134 208/133 236/151
f 236/151 208/133 207/132 237/150
f 237/150 207/132 206/130 238/149
f 237/150 238/149 239/157 240/156
f 236/151 237/150 240/156
f 235/152 236/151 240/156 241/158
f 234/154 235/152 241/158
f 242/160 234/154 241/158 243/159
f 233/153 234/154 242/160 244/161
f 232/155 233/153 244/161
f 245/163 232/155 244/161 246/162
f 247/161 232/155 245/163 248/162
f 231/153 232/155 247/161
f 231/153 247/161 249/160 230/154
f 250/158 230/154 249/160 251/159
f 229/152 230/154 250/158
f 229/152 250/158 252/156 228/151
f 227/150 228/151 252/156
f 227/150 252/156 253/157 225/149
f 226/148 225/149 253/157
f 254/165 224/147 226/148 255/164
f 247/161 254/165 255/164 249/160
f 249/160 255/164 251/159
f 226/148 253/157 251/159 255/164
f 256/138 196/114 122/113
f 192/115 196/114 256/138
f 257/136 192/115 256/138 258/137
f 205/131 192/115 257/136
f 259/144 205/131 257/136 260/143
f 260/143 257/136 258/137 261/142
f 258/137 256/138 124/140 125/141
f 256/138 123/139 124/140
f 122/113 123/139 256/138
f 125/141 262/166 258/137
f 261/142 258/137 262/166 263/167
f 260/143 261/142 264/168
f 259/144 260/143 264/168 265/169
f 266/146 259/144 265/169
f 205/131 259/144 266/146 267/145
f 206/130 205/131 267/145 268/147
f 238/149 206/130 268/147 269/148
f 238/149 269/148 239/157
f 243/159 239/157 269/148 270/164
f 270/164 242/160 243/159
f 244/161 242/160 270/164 271/165
f 271/165 270/164 269/148 268/147
f 272/170 271/165 268/147
f 268/147 267/145 272/170
f 273/171 272/170 267/145
f 274/172 273/171 267/145 266/146
f 274/172 266/146 265/169 275/173
f 276/174 274/172 275/173
f 273/171 274/172 276/174 277/175
f 273/171 277/175 278/176 272/170
f 246/162 272/170 278/176 279/177
f 271/165 272/170 246/162 244/161
f 245/163 246/162 279/177 280/178
f 279/177 278/176 139/180 167/179
f 137/182 139/180 278/176 281/181
f 125/141 137/182 281/181
f 281/181 262/166 125/141
f 263/167 262/166 281/181 282/183
f 261/142 263/167 283/184 264/168
f 263/167 282/183 283/184
f 282/183 281/181 277/175 276/174
f 278/176 277/175 281/181
f 282/183 276/174 275/173 283/184
f 284/166 218/137 220/142 285/167
f 284/166 106/141 218/137
f 284/166 286/181 106/141
f 286/181 284/166 285/167 287/183
f 288/184 285/167 220/142 289/168
f 220/142 219/143 289/168
f 289/168 219/143 221/144 290/169
f 221/144 222/146 290/169
f 290/169 222/146 291/172 292/173
f 291/172 222/146 223/145 293/171
f 294/170 293/171 223/145
f 223/145 224/147 294/170
f 254/165 294/170 224/147
f 248/162 294/170 254/165 247/161
f 295/177 248/162 245/163 280/178
f 248/162 295/177 296/176 294/170
f 293/171 294/170 296/176 297/175
f 297/175 296/176 286/181
f 148/182 286/181 296/176 150/180
f 148/182 106/141 286/181
f 287/183 285/167 288/184
f 287/183 288/184 292/173 298/174
f 291/172 298/174 292/173
f 298/174 291/172 293/171 297/175
f 287/183 298/174 297/175 286/181
f 150/180 296/176 295/177 169/179
f 168/185 169/179 295/177 280/178
f 168/185 280/178 279/177 167/179
f 203/124 98/126 299/186 199/122
f 299/186 204/128 199/122
f 300/186 96/126 201/124 301/122
f 201/124 174/106 301/122
f 302/121 301/122 174/106 177/103
f 177/103 179/107 302/121
f 302/121 179/107 64/110 173/120
f 172/129 302/121 173/120
f 302/121 172/129 303/128
f 301/122 302/121 303/128
f 303/128 300/186 301/122
f 304/190 305/189 306/188 307/187
f 306/188 305/189 308/191
f 309/189 306/188 308/191
f 306/188 309/189 310/190 307/187
f 311/193 304/190 307/187 312/192
f 313/193 312/192 307/187 310/190
f 313/193 310/190 314/195 315/194
f 316/196 314/195 310/190 309/189
f 316/196 309/189 308/191
f 305/189 317/196 308/191
f 318/195 317/196 305/189 304/190
f 319/194 318/195 304/190 311/193
f 320/198 319/194 311/193 321/197
f 321/197 311/193 312/192 322/199
f 323/197 322/199 312/192 313/193
f 323/197 313/193 315/194 324/198
f 325/201 326/200 322/199 323/197
f 325/201 323/197 324/198 327/202
f 320/198 321/197 322/199 326/200
f 320/198 326/200 328/201 329/202
f 330/193 331/190 332/187 333/192
f 334/193 333/192 332/187 335/190
f 335/190 332/187 336/188 337/189
f 336/188 332/187 331/190 338/189
f 336/188 338/189 339/191
f 337/189 336/188 339/191
f 340/195 335/190 337/189 341/196
f 335/190 340/195 342/194 334/193
f 334/193 342/194 343/198 344/197
f 333/192 334/193 344/197 345/199
f 333/192 345/199 346/197 330/193
f 347/194 330/193 346/197 348/198
f 330/193 347/194 349/195 331/190
f 331/190 349/195 350/196 338/189
f 338/189 350/196 339/191
f 341/196 337/189 339/191
f 348/198 346/197 345/199 351/200
f 348/198 351/200 352/201 353/202
f 354/201 351/200 345/199 344/197
f 354/201 344/197 343/198 355/202
f 356/205 357/204 358/203
f 359/207 357/204 356/205 360/206
f 361/207 360/206 356/205 362/204
f 356/205 358/203 362/204
f 363/208 362/204 358/203
f 363/208 358/203 364/210 365/209
f 366/211 364/210 358/203
f 358/203 367/208 366/211
f 367/208 358/203 357/204
f 368/212 367/208 357/204
f 366/211 367/208 368/212 369/210
f 158/214 366/211 369/210 157/213
f 366/211 158/214 159/213 364/210
f 370/216 364/210 159/213 160/215
f 370/216 160/215 157/213 369/210
f 369/210 368/212 371/217 370/216
f 370/216 371/217 365/209 364/210
f 362/204 363/208 365/209
f 361/207 362/204 365/209 372/218
f 372/218 365/209 371/217
f 372/218 371/217 373/220 374/219
f 373/220 371/217 375/221 376/219
f 375/221 371/217 368/212
f 359/207 375/221 368/212 357/204
f 377/223 359/207 360/206 378/222
f 375/221 359/207 377/223 376/219
f 379/225 373/220 376/219 380/224
f 381/226 380/224 376/219 377/223
f 381/226 377/223 378/222 382/227
f 383/223 378/222 360/206 361/207
f 383/223 361/207 372/218 374/219
f 374/219 373/220 379/225 384/224
f 374/219 384/224 385/226 383/223
f 378/222 383/223 385/226 382/227
f 381/226 382/227 386/229 387/228
f 386/229 382/227 385/226 388/228
f 384/224 388/228 385/226
f 388/228 384/224 389/230
f 379/225 389/230 384/224
f 379/225 380/224 389/230
f 387/228 389/230 380/224
f 381/226 387/228 380/224
f 386/229 389/230 387/228
f 386/229 388/228 389/230
f 390/205 391/204 392/207 393/206
f 390/205 393/206 394/207 395/204
f 396/203 390/205 395/204
f 391/204 390/205 396/203
f 396/203 397/208 391/204
f 397/208 396/203 398/211
f 399/210 398/211 396/203
f 399/210 396/203 400/208 401/209
f 395/204 400/208 396/203
f 400/208 395/204 401/209
f 402/216 399/210 401/209 403/217
f 134/213 399/210 402/216 141/215
f 398/211 399/210 134/213 133/214
f 404/210 398/211 133/214 132/213
f 402/216 404/210 132/213 141/215
f 404/210 402/216 403/217 405/212
f 401/209 406/218 403/217
f 394/207 406/218 401/209 395/204
f 407/223 394/207 393/206 408/222
f 406/218 394/207 407/223 409/219
f 406/218 409/219 410/220 403/217
f 411/221 403/217 410/220 412/219
f 403/217 411/221 405/212
f 405/212 411/221 392/207 391/204
f 397/208 405/212 391/204
f 405/212 397/208 398/211 404/210
f 413/223 408/222 393/206 392/207
f 413/223 392/207 411/221 412/219
f 412/219 410/220 414/225 415/224
f 414/225 410/220 409/219 416/224
f 417/226 416/224 409/219 407/223
f 417/226 407/223 408/222 418/227
f 419/226 418/227 408/222 413/223
f 419/226 413/223 412/219 415/224
f 415/224 414/225 420/230
f 420/230 414/225 416/224
f 416/224 421/228 420/230
f 421/228 416/224 417/226
f 422/229 421/228 417/226 418/227
f 422/229 418/227 419/226 423/228
f 423/228 419/226 415/224
f 420/230 423/228 415/224
f 420/230 422/229 423/228
f 421/228 422/229 420/230
f 424/233 425/232 426/231
f 424/233 426/231 427/234
f 424/233 427/234 428/231
f 424/233 428/231 429/232
f 429/232 428/231 430/236 431/235
f 431/235 430/236 432/238 433/237
f 433/237 432/238 434/240 327/239
f 434/240 325/241 327/239
f 435/242 433/237 327/239
f 436/244 325/241 434/240 437/243
f 326/246 325/241 436/244 438/245
f 326/246 438/245 439/244 328/241
f 328/241 439/244 440/243 441/240
f 442/242 329/239 328/241 441/240
f 442/242 441/240 443/238 444/237
f 444/237 443/238 445/236 446/235
f 446/235 445/236 426/231 425/232
f 426/231 445/236 447/247 427/234
f 428/231 427/234 447/247 430/236
f 430/236 447/247 448/248 432/238
f 432/238 448/248 449/249 434/240
f 437/243 434/240 449/249 450/250
f 12/252 436/244 437/243 14/251
f 436/244 12/252 13/253 438/245
f 438/245 13/253 28/252 439/244
f 439/244 28/252 25/251 440/243
f 440/243 25/251 16/254 450/250
f 441/240 440/243 450/250 449/249
f 443/238 441/240 449/249 448/248
f 445/236 443/238 448/248 447/247
f 14/251 437/243 450/250 16/254
f 451/203 452/205 453/204
f 454/204 452/205 451/203
f 452/205 454/204 455/207 456/206
f 452/205 456/206 457/207 453/204
f 458/209 453/204 457/207 459/218
f 460/208 453/204 458/209
f 453/204 460/208 451/203
f 461/210 451/203 460/208 458/209
f 462/216 461/210 458/209 463/217
f 241/213 461/210 462/216 243/215
f 464/211 461/210 241/213 240/214
f 461/210 464/211 451/203
f 465/208 451/203 464/211
f 451/203 465/208 454/204
f 465/208 466/212 454/204
f 466/212 465/208 464/211 467/210
f 467/210 464/211 240/214 239/213
f 462/216 467/210 239/213 243/215
f 467/210 462/216 463/217 466/212
f 463/217 468/221 466/212
f 466/212 468/221 455/207 454/204
f 456/206 455/207 469/223 470/222
f 469/223 455/207 468/221 471/219
f 472/226 469/223 471/219 473/224
f 470/222 469/223 472/226 474/227
f 456/206 470/222 475/223 457/207
f 459/218 457/207 475/223 476/219
f 458/209 459/218 463/217
f 477/220 463/217 459/218 476/219
f 468/221 463/217 477/220 471/219
f 471/219 477/220 478/225 473/224
f 478/225 477/220 476/219 479/224
f 476/219 475/223 480/226 479/224
f 480/226 475/223 470/222 474/227
f 481/229 474/227 472/226 482/228
f 480/226 474/227 481/229 483/228
f 483/228 479/224 480/226
f 484/230 478/225 479/224
f 479/224 483/228 484/230
f 483/228 481/229 484/230
f 484/230 481/229 482/228
f 482/228 472/226 473/224
f 473/224 478/225 484/230
f 484/230 482/228 473/224
f 485/205 486/203 487/204
f 485/205 487/204 488/207 489/206
f 485/205 489/206 490/207 491/204
f 485/205 491/204 486/203
f 492/208 486/203 491/204
f 486/203 492/208 493/211
f 493/211 494/210 486/203
f 495/208 486/203 494/210 496/209
f 495/208 487/204 486/203
f 487/204 495/208 496/209
f 496/209 494/210 497/216 498/217
f 497/216 494/210 250/213 251/215
f 250/213 494/210 493/211 252/214
f 252/214 493/211 499/210 253/213
f 253/213 499/210 497/216 251/215
f 498/217 497/216 499/210 500/212
f 501/218 496/209 498/217
f 496/209 501/218 488/207 487/204
f 489/206 488/207 502/223 503/222
f 502/223 488/207 501/218 504/219
f 505/226 502/223 504/219 506/224
f 503/222 502/223 505/226 507/227
f 489/206 503/222 508/223 490/207
f 509/221 490/207 508/223 510/219
f 490/207 509/221 500/212 491/204
f 500/212 492/208 491/204
f 493/211 492/208 500/212 499/210
f 509/221 498/217 500/212
f 511/220 498/217 509/221 510/219
f 501/218 498/217 511/220 504/219
f 504/219 511/220 512/225 506/224
f 512/225 511/220 510/219 513/224
f 510/219 508/223 514/226 513/224
f 514/226 508/223 503/222 507/227
f 515/229 507/227 505/226 516/228
f 514/226 507/227 515/229 517/228
f 514/226 517/228 513/224
f 512/225 513/224 518/230
f 517/228 518/230 513/224
f 515/229 518/230 517/228
f 515/229 516/228 518/230
f 506/224 516/228 505/226
f 512/225 518/230 506/224
f 516/228 506/224 518/230
f 519/205 520/204 521/207 522/206
f 519/205 522/206 523/207 524/204
f 519/205 524/204 525/203
f 519/205 525/203 520/204
f 526/208 520/204 525/203
f 526/208 525/203 527/210 528/209
f 529/211 527/210 525/203
f 525/203 530/208 529/211
f 530/208 525/203 524/204
f 531/212 530/208 524/204
f 529/211 530/208 531/212 532/210
f 289/214 529/211 532/210 288/213
f 288/213 532/210 533/216 292/215
f 290/213 292/215 533/216 527/210
f 290/213 527/210 529/211 289/214
f 531/212 524/204 523/207 534/221
f 534/221 523/207 535/223 536/219
f 535/223 523/207 522/206 537/222
f 538/223 537/222 522/206 521/207
f 538/223 521/207 539/218 540/219
f 528/209 539/218 521/207 520/204
f 520/204 526/208 528/209
f 528/209 527/210 533/216 541/217
f 539/218 528/209 541/217
f 539/218 541/217 542/220 540/219
f 542/220 541/217 534/221 536/219
f 534/221 541/217 531/212
f 532/210 531/212 541/217 533/216
f 537/222 538/223 543/226 544/227
f 537/222 544/227 545/226 535/223
f 536/219 535/223 545/226 546/224
f 547/225 542/220 536/219 546/224
f 545/226 548/228 546/224
f 549/229 548/228 545/226 544/227
f 549/229 544/227 543/226 550/228
f 551/224 550/228 543/226
f 540/219 551/224 543/226 538/223
f 540/219 542/220 547/225 551/224
f 547/225 552/230 551/224
f 547/225 546/224 552/230
f 548/228 552/230 546/224
f 549/229 552/230 548/228
f 549/229 550/228 552/230
f 550/228 551/224 552/230
f 553/207 554/206 555/205 556/204
f 556/204 555/205 557/203
f 557/203 555/205 558/204
f 559/207 558/204 555/205 554/206
f 560/223 559/207 554/206 561/222
f 562/223 561/222 554/206 553/207
f 562/223 553/207 563/221 564/219
f 565/212 563/221 553/207 556/204
f 566/208 565/212 556/204
f 557/203 566/208 556/204
f 566/208 557/203 567/211
f 565/212 566/208 567/211 568/210
f 568/210 567/211 264/214 283/213
f 569/216 568/210 283/213 275/215
f 569/216 275/215 265/213 570/210
f 567/211 570/210 265/213 264/214
f 570/210 567/211 557/203
f 570/210 557/203 571/208 572/209
f 558/204 571/208 557/203
f 571/208 558/204 572/209
f 569/216 570/210 572/209 573/217
f 568/210 569/216 573/217 565/212
f 573/217 563/221 565/212
f 563/221 573/217 574/220 564/219
f 574/220 573/217 575/218 576/219
f 572/209 575/218 573/217
f 559/207 575/218 572/209 558/204
f 575/218 559/207 560/223 576/219
f 577/225 574/220 576/219 578/224
f 579/226 578/224 576/219 560/223
f 579/226 560/223 561/222 580/227
f 581/226 580/227 561/222 562/223
f 581/226 562/223 564/219 582/224
f 564/219 574/220 577/225 582/224
f 583/228 581/226 582/224
f 581/226 583/228 584/229 580/227
f 579/226 580/227 584/229 585/228
f 585/228 578/224 579/226
f 578/224 585/228 586/230
f 586/230 577/225 578/224
f 582/224 577/225 586/230
f 586/230 583/228 582/224
f 586/230 584/229 583/228
f 585/228 584/229 586/230
f 587/231 588/233 589/234
f 590/232 588/233 587/231
f 591/235 590/232 587/231 592/236
f 593/247 592/236 587/231 589/234
f 593/247 589/234 594/231 595/236
f 589/234 588/233 594/231
f 594/231 588/233 596/232
f 595/236 594/231 596/232 597/235
f 598/248 593/247 595/236 599/238
f 592/236 593/247 598/248 600/238
f 592/236 600/238 601/237 591/235
f 601/237 600/238 602/240 355/239
f 602/240 354/241 355/239
f 603/242 601/237 355/239
f 354/241 602/240 604/243 605/244
f 351/246 354/241 605/244 606/245
f 351/246 606/245 607/244 352/241
f 608/240 352/241 607/244 609/243
f 353/239 352/241 608/240 610/237
f 608/240 599/238 610/237
f 611/242 353/239 610/237
f 597/235 610/237 599/238 595/236
f 612/249 598/248 599/238 608/240
f 600/238 598/248 612/249 602/240
f 602/240 612/249 613/250 604/243
f 604/243 613/250 56/254 54/251
f 605/244 604/243 54/251 53/252
f 606/245 605/244 53/252 49/253
f 607/244 606/245 49/253 48/252
f 609/243 607/244 48/252 47/251
f 612/249 608/240 609/243 613/250
f 613/250 609/243 47/251 56/254
f 614/257 615/256 616/255
f 617/258 614/257 616/255
f 618/259 617/258 616/255
f 619/260 618/259 616/255
f 620/261 619/260 616/255
f 621/262 620/261 616/255
f 622/263 621/262 616/255
f 615/256 622/263 616/255
f 623/267 624/266 617/265 618/264
f 625/269 623/267 618/264 619/268
f 623/267 625/269 626/271 627/270
f 624/266 623/267 627/270 628/272
f 629/274 624/266 628/272 630/273
f 624/266 629/274 614/275 617/265
f 615/277 614/275 629/274 631/276
f 622/279 615/277 631/276 632/278
f 621/281 622/279 632/278 633/280
f 620/283 621/281 633/280 634/282
f 619/285 620/283 634/282 625/284
f 625/284 634/282 635/287 626/286
f 636/289 637/288 626/286 635/287
f 637/288 636/289 299/291 98/290
f 299/291 636/289 638/293 204/292
f 635/287 639/294 638/293 636/289
f 639/294 635/287 634/282 633/280
f 640/295 639/294 633/280 632/278
f 641/296 640/295 632/278 631/276
f 630/273 641/296 631/276 629/274
f 642/298 643/297 630/273 628/272
f 628/272 627/270 644/299 642/298
f 627/270 626/271 637/300 644/299
f 98/301 644/299 637/300
f 98/301 92/302 644/299
f 92/302 642/298 644/299
f 642/298 92/302 91/303 643/297
f 645/304 641/296 630/273 643/297
f 646/305 640/295 641/296 645/304
f 646/305 638/293 639/294 640/295
f 638/293 646/305 89/306 204/292
f 89/306 646/305 645/304 90/307
f 91/303 90/307 645/304 643/297
f 647/256 648/257 649/255
f 648/257 650/258 649/255
f 650/258 651/259 649/255
f 651/259 652/260 649/255
f 652/260 653/261 649/255
f 653/261 654/262 649/255
f 654/262 655/263 649/255
f 655/263 647/256 649/255
f 656/266 650/265 648/275 657/274
f 650/265 656/266 658/267 651/264
f 651/264 658/267 659/269 652/268
f 660/271 659/269 658/267 661/270
f 661/270 658/267 656/266 662/272
f 662/272 656/266 657/274 663/273
f 657/274 648/275 647/277 664/276
f 664/276 647/277 655/279 665/278
f 665/278 655/279 654/281 666/280
f 666/280 654/281 653/283 667/282
f 667/282 653/283 652/285 659/284
f 668/287 667/282 659/284 660/286
f 660/286 669/288 670/289 668/287
f 300/291 670/289 669/288 96/290
f 671/293 670/289 300/291 303/292
f 671/293 672/294 668/287 670/289
f 667/282 668/287 672/294 666/280
f 666/280 672/294 673/295 665/278
f 665/278 673/295 674/296 664/276
f 664/276 674/296 663/273 657/274
f 663/273 675/297 676/298 662/272
f 677/299 661/270 662/272 676/298
f 669/300 660/271 661/270 677/299
f 677/299 96/301 669/300
f 95/302 96/301 677/299
f 676/298 95/302 677/299
f 170/303 95/302 676/298 675/297
f 663/273 674/296 678/304 675/297
f 674/296 673/295 679/305 678/304
f 672/294 671/293 679/305 673/295
f 172/306 679/305 671/293 303/292
f 678/304 679/305 172/306 171/307
f 678/304 171/307 170/303 675/297
f 680/311 681/310 682/309 683/308
# 814 facets

