#  ==========================================================================
#  Wavefront Material file
#  Exported by Red-i Productions' "Riptide Pro"
#  (a commercial plugin for Cinema 4D PC & Mac, R9.6 or later)
#  
#  Red-i Productions
#  http://skinprops.com
#  
#  ==========================================================================

newmtl Mat
Kd 1.000000 0.960784 0.266667
Ks 1.000000 1.000000 1.000000
illum 2
Ns 50.781250
